<?xml version="1.0" encoding="utf-8"?>
<!-- Generator: Adobe Illustrator 16.0.0, SVG Export Plug-In . SVG Version: 6.00 Build 0)  -->
<!DOCTYPE svg PUBLIC "-//W3C//DTD SVG 1.1//EN" "http://www.w3.org/Graphics/SVG/1.1/DTD/svg11.dtd">
<svg version="1.1" id="Capa_1" xmlns="http://www.w3.org/2000/svg" xmlns:xlink="http://www.w3.org/1999/xlink" x="0px" y="0px"
	 width="145.333px" height="31.167px" viewBox="36.429 18.833 145.333 31.167"
	 enable-background="new 36.429 18.833 145.333 31.167" xml:space="preserve">
<g>
	<defs>
		<rect id="SVGID_1_" x="49.044" y="23.156" width="19.588" height="5.234"/>
	</defs>
	<clipPath id="SVGID_2_">
		<use xlink:href="#SVGID_1_"  overflow="visible"/>
	</clipPath>
	<g clip-path="url(#SVGID_2_)">
		<defs>
			<rect id="SVGID_3_" x="-117.33" y="-886.288" width="453.305" height="1450.578"/>
		</defs>
		<clipPath id="SVGID_4_">
			<use xlink:href="#SVGID_3_"  overflow="visible"/>
		</clipPath>
		<g clip-path="url(#SVGID_4_)" enable-background="new    ">
			<g>
				<defs>
					<rect id="SVGID_5_" x="48.41" y="21.739" width="21.249" height="7.083"/>
				</defs>
				<clipPath id="SVGID_6_">
					<use xlink:href="#SVGID_5_"  overflow="visible"/>
				</clipPath>
				<g clip-path="url(#SVGID_6_)">
					<defs>
						<path id="SVGID_7_" d="M51.099,25.918c-0.794,0.707-1.63,1.441-2.056,2.445c0.859,0.011,1.721,0.055,2.579-0.006
							c0.791-0.492,1.401-1.239,2.232-1.682c3.041-1.932,7.164-1.896,10.171,0.082c0.777,0.43,1.337,1.157,2.101,1.592
							c0.834,0.063,1.673,0.008,2.505,0.027l-0.133-0.451c-1.458-2.086-3.696-3.58-6.106-4.352c-1.649-0.579-3.42-0.391-5.131-0.382
							C54.99,23.408,52.852,24.481,51.099,25.918"/>
					</defs>
					<clipPath id="SVGID_8_">
						<use xlink:href="#SVGID_7_"  overflow="visible"/>
					</clipPath>
					<g clip-path="url(#SVGID_8_)">
						<defs>
							<rect id="SVGID_9_" x="48.41" y="23.156" width="21.249" height="5.666"/>
						</defs>
						<clipPath id="SVGID_10_">
							<use xlink:href="#SVGID_9_"  overflow="visible"/>
						</clipPath>
						<rect x="41.961" y="16.073" clip-path="url(#SVGID_10_)" fill="#FFFFFF" width="33.754" height="19.4"/>
					</g>
				</g>
			</g>
		</g>
	</g>
</g>
<g>
	<defs>
		<rect id="SVGID_11_" x="159.733" y="25.23" width="19.965" height="19.694"/>
	</defs>
	<clipPath id="SVGID_12_">
		<use xlink:href="#SVGID_11_"  overflow="visible"/>
	</clipPath>
	<g clip-path="url(#SVGID_12_)">
		<defs>
			<rect id="SVGID_13_" x="-117.33" y="-886.288" width="453.305" height="1450.578"/>
		</defs>
		<clipPath id="SVGID_14_">
			<use xlink:href="#SVGID_13_"  overflow="visible"/>
		</clipPath>
		<g clip-path="url(#SVGID_14_)" enable-background="new    ">
			<g>
				<defs>
					<rect id="SVGID_15_" x="158.903" y="24.572" width="21.249" height="21.249"/>
				</defs>
				<clipPath id="SVGID_16_">
					<use xlink:href="#SVGID_15_"  overflow="visible"/>
				</clipPath>
				<g clip-path="url(#SVGID_16_)">
					<defs>
						<path id="SVGID_17_" d="M165.142,25.989c-1.135,0.611-2.385,1.353-2.875,2.612c-0.329,1.272,0.955,2.113,1.524,3.096
							c-1.134,0.337-2.404,0.481-3.361,1.236c-0.891,0.927-0.72,2.347-0.598,3.517c0.24,1.223,0.564,2.548,1.469,3.461
							c1.091,0.941,2.466-0.077,3.605-0.382c-0.056,1.062-0.166,2.145,0.041,3.199c0.264,1.153,1.491,1.635,2.516,1.903
							c1.48,0.323,3.135,0.515,4.546-0.161c1.239-0.728,0.675-2.362,0.761-3.527c1.275,0.404,2.625,1.271,3.992,0.791
							c1.06-0.619,1.713-1.729,2.235-2.803c0.49-1.161,1.073-2.592,0.382-3.793c-0.719-0.788-1.884-0.83-2.844-1.15
							c0.608-0.919,1.444-1.69,1.881-2.715c0.388-1.109-0.398-2.16-1.04-2.996c-1.029-1.189-2.371-2.391-4.031-2.443
							c-1.242,0.166-1.627,1.535-2.396,2.33c-0.673-0.994-1.227-2.186-2.321-2.781C167.46,24.965,166.204,25.482,165.142,25.989"/>
					</defs>
					<clipPath id="SVGID_18_">
						<use xlink:href="#SVGID_17_"  overflow="visible"/>
					</clipPath>
					<g clip-path="url(#SVGID_18_)">
						<defs>
							<rect id="SVGID_19_" x="158.903" y="24.572" width="21.249" height="21.249"/>
						</defs>
						<clipPath id="SVGID_20_">
							<use xlink:href="#SVGID_19_"  overflow="visible"/>
						</clipPath>
						<rect x="152.65" y="18.148" clip-path="url(#SVGID_20_)" fill="#FFFFFF" width="34.131" height="33.859"/>
					</g>
				</g>
			</g>
		</g>
	</g>
</g>
<g>
	<defs>
		<path id="SVGID_21_" d="M57.316,27.849c0,0.811,0,1.621,0.014,2.432c-0.658,0.111-1.322,0.08-1.978-0.024
			c-0.21,0.769-0.119,1.571-0.125,2.357c0.701-0.003,1.404,0,2.107,0.027c-0.029,2.271-0.013,4.54-0.013,6.814
			c-0.025,1.112,0.438,2.338,1.472,2.875c1.101,0.598,2.44,0.337,3.505-0.219c0.199-0.786,0.387-1.571,0.576-2.357
			c-0.767,0.465-1.688,0.821-2.587,0.551c-0.469-0.277-0.527-0.863-0.523-1.356c-0.004-2.11,0.002-4.225,0-6.333h2.504
			c0-0.749,0.002-1.499,0.011-2.249c-0.835-0.011-1.671-0.011-2.508-0.03c-0.014-1.265-0.003-2.531-0.011-3.799
			C58.94,26.963,58.127,27.402,57.316,27.849"/>
	</defs>
	<clipPath id="SVGID_22_">
		<use xlink:href="#SVGID_21_"  overflow="visible"/>
	</clipPath>
	<g clip-path="url(#SVGID_22_)">
		<defs>
			<rect id="SVGID_23_" x="-117.33" y="-886.288" width="453.305" height="1450.578"/>
		</defs>
		<clipPath id="SVGID_24_">
			<use xlink:href="#SVGID_23_"  overflow="visible"/>
		</clipPath>
		<rect x="48.131" y="19.454" clip-path="url(#SVGID_24_)" fill="#FFFFFF" width="21.827" height="30.299"/>
	</g>
</g>
<g>
	<defs>
		<path id="SVGID_25_" d="M71.236,27.859c-0.005,4.87-0.002,9.742-0.002,14.608c0.816,0.006,1.635,0.006,2.453,0.006
			c0-0.352,0.002-0.7,0.005-1.055c1.169,0.978,2.754,1.61,4.279,1.19c1.916-0.404,3.337-2.095,3.75-3.962
			c0.405-1.951,0.309-4.067-0.511-5.901c-0.682-1.55-2.27-2.682-3.985-2.653c-1.324-0.108-2.547,0.528-3.536,1.347
			c-0.004-1.624,0.007-3.245-0.005-4.872C72.846,26.957,72.045,27.417,71.236,27.859"/>
	</defs>
	<clipPath id="SVGID_26_">
		<use xlink:href="#SVGID_25_"  overflow="visible"/>
	</clipPath>
	<g clip-path="url(#SVGID_26_)">
		<defs>
			<rect id="SVGID_27_" x="-117.33" y="-886.288" width="453.305" height="1450.578"/>
		</defs>
		<clipPath id="SVGID_28_">
			<use xlink:href="#SVGID_27_"  overflow="visible"/>
		</clipPath>
		<rect x="64.15" y="19.484" clip-path="url(#SVGID_28_)" fill="#FFFFFF" width="24.887" height="30.341"/>
	</g>
</g>
<g>
	<defs>
		<rect id="SVGID_29_" x="38.494" y="30.111" width="10.66" height="12.603"/>
	</defs>
	<clipPath id="SVGID_30_">
		<use xlink:href="#SVGID_29_"  overflow="visible"/>
	</clipPath>
	<g clip-path="url(#SVGID_30_)">
		<defs>
			<rect id="SVGID_31_" x="-117.33" y="-886.288" width="453.305" height="1450.578"/>
		</defs>
		<clipPath id="SVGID_32_">
			<use xlink:href="#SVGID_31_"  overflow="visible"/>
		</clipPath>
		<g clip-path="url(#SVGID_32_)" enable-background="new    ">
			<g>
				<defs>
					<rect id="SVGID_33_" x="37.077" y="28.822" width="12.749" height="14.166"/>
				</defs>
				<clipPath id="SVGID_34_">
					<use xlink:href="#SVGID_33_"  overflow="visible"/>
				</clipPath>
				<g clip-path="url(#SVGID_34_)">
					<defs>
						<path id="SVGID_35_" d="M39.299,33.139c-1.144,2.133-1.079,4.922,0.257,6.958c1.239,1.879,3.606,2.762,5.795,2.601
							c1.498-0.118,2.843-0.94,3.803-2.066c-0.433-0.587-0.897-1.146-1.358-1.71c-1.176,1.104-2.908,1.826-4.477,1.115
							c-2.119-0.8-2.871-3.58-1.881-5.509c0.736-1.58,2.721-2.44,4.369-1.862c0.758,0.216,1.379,0.723,1.945,1.251
							c0.431-0.592,1.123-1.079,1.314-1.801C46.645,28.947,41.122,29.716,39.299,33.139"/>
					</defs>
					<clipPath id="SVGID_36_">
						<use xlink:href="#SVGID_35_"  overflow="visible"/>
					</clipPath>
					<g clip-path="url(#SVGID_36_)">
						<defs>
							<rect id="SVGID_37_" x="38.494" y="28.822" width="11.333" height="14.166"/>
						</defs>
						<clipPath id="SVGID_38_">
							<use xlink:href="#SVGID_37_"  overflow="visible"/>
						</clipPath>
						<rect x="31.411" y="23.029" clip-path="url(#SVGID_38_)" fill="#FFFFFF" width="24.826" height="26.768"/>
					</g>
				</g>
			</g>
		</g>
	</g>
</g>
<g>
	<defs>
		<path id="SVGID_39_" d="M84.193,31.169c0.315,0.586,0.62,1.176,0.909,1.776c1.425-0.667,3.18-1.085,4.673-0.401
			c0.967,0.489,1.022,1.646,0.961,2.59c-1.562-0.531-3.287-0.59-4.877-0.158c-1.143,0.315-2.219,1.115-2.604,2.274
			c-0.518,1.514-0.188,3.395,1.075,4.449c1.83,1.552,4.734,1.28,6.393-0.401c0.004,0.393,0.011,0.785,0.02,1.176
			c0.813,0.003,1.627,0.003,2.444-0.006c-0.01-2.656-0.003-5.31-0.003-7.965c-0.007-0.762-0.047-1.55-0.412-2.233
			c-0.581-1.22-1.883-1.923-3.18-2.105C87.756,29.885,85.778,30.164,84.193,31.169"/>
	</defs>
	<clipPath id="SVGID_40_">
		<use xlink:href="#SVGID_39_"  overflow="visible"/>
	</clipPath>
	<g clip-path="url(#SVGID_40_)">
		<defs>
			<rect id="SVGID_41_" x="-117.33" y="-886.288" width="453.305" height="1450.578"/>
		</defs>
		<clipPath id="SVGID_42_">
			<use xlink:href="#SVGID_41_"  overflow="visible"/>
		</clipPath>
		<rect x="75.936" y="22.979" clip-path="url(#SVGID_42_)" fill="#FFFFFF" width="24.333" height="26.83"/>
	</g>
</g>
<g>
	<defs>
		<path id="SVGID_43_" d="M97.822,31.332c0.003-0.241,0.011-0.723,0.014-0.966c-0.822-0.05-1.647-0.069-2.468,0
			c0.028,4.034,0.003,8.07,0.011,12.107c0.812,0,1.621,0,2.438,0.006c0.022-2.41-0.006-4.825,0.011-7.235
			c-0.022-1.043,0.404-2.199,1.374-2.706c0.852-0.388,1.948-0.382,2.72,0.191c0.87,0.732,0.906,1.964,0.978,3.01
			c0.011,2.244,0,4.49,0.002,6.734c0.795,0.003,1.591,0.003,2.387-0.014c-0.035-2.567,0.009-5.141-0.024-7.708
			c-0.03-1.506-0.465-3.193-1.797-4.067C101.714,29.678,99.291,29.907,97.822,31.332"/>
	</defs>
	<clipPath id="SVGID_44_">
		<use xlink:href="#SVGID_43_"  overflow="visible"/>
	</clipPath>
	<g clip-path="url(#SVGID_44_)">
		<defs>
			<rect id="SVGID_45_" x="-117.33" y="-886.288" width="453.305" height="1450.578"/>
		</defs>
		<clipPath id="SVGID_46_">
			<use xlink:href="#SVGID_45_"  overflow="visible"/>
		</clipPath>
		<rect x="88.284" y="22.982" clip-path="url(#SVGID_46_)" fill="#FFFFFF" width="24.086" height="26.58"/>
	</g>
</g>
<g>
	<defs>
		<path id="SVGID_47_" d="M107.978,31.074c0.241,0.634,0.534,1.245,0.831,1.859c1.439-0.619,3.153-1.073,4.656-0.412
			c0.986,0.465,1.06,1.641,1.018,2.59c-1.375-0.418-2.844-0.554-4.264-0.282c-1.114,0.183-2.238,0.733-2.877,1.696
			c-0.83,1.3-0.758,3.04,0.005,4.352c0.761,1.229,2.248,1.835,3.649,1.862c1.293,0.03,2.492-0.598,3.462-1.405
			c0,0.382,0.005,0.761,0.011,1.14h2.44c-0.009-2.825,0.013-5.645-0.009-8.472c0.048-1.524-0.945-2.978-2.371-3.509
			C112.4,29.691,109.966,30.04,107.978,31.074"/>
	</defs>
	<clipPath id="SVGID_48_">
		<use xlink:href="#SVGID_47_"  overflow="visible"/>
	</clipPath>
	<g clip-path="url(#SVGID_48_)">
		<defs>
			<rect id="SVGID_49_" x="-117.33" y="-886.288" width="453.305" height="1450.578"/>
		</defs>
		<clipPath id="SVGID_50_">
			<use xlink:href="#SVGID_49_"  overflow="visible"/>
		</clipPath>
		<rect x="99.664" y="22.968" clip-path="url(#SVGID_50_)" fill="#FFFFFF" width="24.331" height="26.854"/>
	</g>
</g>
<g>
	<defs>
		<path id="SVGID_51_" d="M121.534,31.352c0-0.332-0.002-0.667-0.005-0.999c-0.815-0.003-1.632-0.003-2.445,0.02
			c-0.006,4.031,0,8.062-0.003,12.093c0.819,0.015,1.634,0.015,2.453,0.003c-0.008-2.246,0.002-4.493-0.008-6.739
			c0.013-0.839,0.076-1.732,0.526-2.463c0.686-1.156,2.484-1.319,3.461-0.459c0.647,0.722,0.711,1.763,0.731,2.687
			c0.008,2.327-0.002,4.653,0.003,6.98c0.812,0,1.629,0,2.444,0c0-2.324-0.001-4.646-0.001-6.97
			c0.004-0.943,0.084-2.012,0.798-2.714c0.716-0.628,1.802-0.642,2.646-0.282c0.954,0.539,1.115,1.734,1.149,2.723
			c0.029,2.418-0.01,4.833,0.018,7.249c0.81-0.006,1.625-0.006,2.436-0.006c-0.006-2.487,0.015-4.978-0.009-7.465
			c-0.047-1.402-0.209-2.969-1.25-4.018c-0.994-0.957-2.482-0.965-3.769-0.865c-1.161,0.068-2.141,0.799-2.872,1.651
			C126.552,29.594,123.17,29.553,121.534,31.352"/>
	</defs>
	<clipPath id="SVGID_52_">
		<use xlink:href="#SVGID_51_"  overflow="visible"/>
	</clipPath>
	<g clip-path="url(#SVGID_52_)">
		<defs>
			<rect id="SVGID_53_" x="-117.33" y="-886.288" width="453.305" height="1450.578"/>
		</defs>
		<clipPath id="SVGID_54_">
			<use xlink:href="#SVGID_53_"  overflow="visible"/>
		</clipPath>
		<rect x="111.998" y="22.982" clip-path="url(#SVGID_54_)" fill="#FFFFFF" width="30.824" height="26.58"/>
	</g>
</g>
<g>
	<defs>
		<path id="SVGID_55_" d="M138.401,32.355c-1.069,1.721-1.313,3.904-0.863,5.863c0.355,1.726,1.489,3.345,3.135,4.053
			c2.128,0.946,4.756,0.407,6.478-1.115c-0.435-0.536-0.883-1.062-1.334-1.582c-1.265,0.871-3.035,1.348-4.449,0.551
			c-1.026-0.581-1.519-1.743-1.657-2.869c2.786,0.027,5.569,0.005,8.354,0.011c0.227-2.053-0.169-4.333-1.683-5.838
			C144.178,29.257,140.047,29.735,138.401,32.355"/>
	</defs>
	<clipPath id="SVGID_56_">
		<use xlink:href="#SVGID_55_"  overflow="visible"/>
	</clipPath>
	<g clip-path="url(#SVGID_56_)">
		<defs>
			<rect id="SVGID_57_" x="-117.33" y="-886.288" width="453.305" height="1450.578"/>
		</defs>
		<clipPath id="SVGID_58_">
			<use xlink:href="#SVGID_57_"  overflow="visible"/>
		</clipPath>
		<rect x="130.24" y="22.974" clip-path="url(#SVGID_58_)" fill="#FFFFFF" width="24.964" height="26.852"/>
	</g>
</g>
<g>
	<defs>
		<path id="SVGID_59_" d="M50.535,30.35v12.118c0.848,0.006,1.699,0.009,2.545,0.006c-0.053-0.767-0.093-1.533-0.048-2.297
			c0.159-2.628-0.079-5.262,0.057-7.891c0.017-0.672-0.005-1.342-0.101-2.006C52.169,30.267,51.348,30.267,50.535,30.35"/>
	</defs>
	<clipPath id="SVGID_60_">
		<use xlink:href="#SVGID_59_"  overflow="visible"/>
	</clipPath>
	<g clip-path="url(#SVGID_60_)">
		<defs>
			<rect id="SVGID_61_" x="-117.33" y="-886.288" width="453.305" height="1450.578"/>
		</defs>
		<clipPath id="SVGID_62_">
			<use xlink:href="#SVGID_61_"  overflow="visible"/>
		</clipPath>
		<rect x="43.452" y="23.189" clip-path="url(#SVGID_62_)" fill="#FFFFFF" width="16.725" height="26.37"/>
	</g>
</g>
<g>
	<defs>
		<path id="SVGID_63_" d="M64.795,30.28c-0.018,4.064-0.003,8.129-0.005,12.193c0.822,0,1.641,0,2.465,0.014
			c0.044-4.062,0.003-8.117,0.022-12.179C66.449,30.272,65.622,30.275,64.795,30.28"/>
	</defs>
	<clipPath id="SVGID_64_">
		<use xlink:href="#SVGID_63_"  overflow="visible"/>
	</clipPath>
	<g clip-path="url(#SVGID_64_)">
		<defs>
			<rect id="SVGID_65_" x="-117.33" y="-886.288" width="453.305" height="1450.578"/>
		</defs>
		<clipPath id="SVGID_66_">
			<use xlink:href="#SVGID_65_"  overflow="visible"/>
		</clipPath>
		<rect x="57.703" y="23.195" clip-path="url(#SVGID_66_)" fill="#FFFFFF" width="16.656" height="26.375"/>
	</g>
</g>
<g>
	<defs>
		<path id="SVGID_67_" d="M151.812,36.207c-1.26,2.072-2.474,4.169-3.697,6.261c0.886,0.006,1.774,0.006,2.662,0.017
			c0.866-1.485,1.721-2.977,2.477-4.526c0.808,1.5,1.618,2.997,2.404,4.505c0.954,0.017,1.911,0.017,2.869,0.005
			c-1.234-2.097-2.469-4.191-3.725-6.277c1.071-1.984,2.457-3.808,3.32-5.891c-0.836,0.089-1.677,0-2.512,0.061
			c-0.991,1.162-1.373,2.772-2.357,3.965c-0.631-1.353-1.403-2.623-2.075-3.953c-0.907-0.009-1.812-0.022-2.715-0.092
			C149.374,32.353,150.749,34.201,151.812,36.207"/>
	</defs>
	<clipPath id="SVGID_68_">
		<use xlink:href="#SVGID_67_"  overflow="visible"/>
	</clipPath>
	<g clip-path="url(#SVGID_68_)">
		<defs>
			<rect id="SVGID_69_" x="-117.33" y="-886.288" width="453.305" height="1450.578"/>
		</defs>
		<clipPath id="SVGID_70_">
			<use xlink:href="#SVGID_69_"  overflow="visible"/>
		</clipPath>
		<rect x="141.032" y="23.198" clip-path="url(#SVGID_70_)" fill="#FFFFFF" width="24.577" height="26.37"/>
	</g>
</g>
<g>
	<defs>
		<path id="SVGID_71_" d="M166.251,29.6c1.289-0.971,2.952-1.27,4.534-1.117c-0.379,0.652-0.725,1.325-0.977,2.039
			c-0.977-0.999-2.26-0.062-3.37,0.085C165.922,30.593,165.842,29.832,166.251,29.6"/>
	</defs>
	<clipPath id="SVGID_72_">
		<use xlink:href="#SVGID_71_"  overflow="visible"/>
	</clipPath>
	<g clip-path="url(#SVGID_72_)">
		<defs>
			<rect id="SVGID_73_" x="-117.33" y="-886.288" width="453.305" height="1450.578"/>
		</defs>
		<clipPath id="SVGID_74_">
			<use xlink:href="#SVGID_73_"  overflow="visible"/>
		</clipPath>
		<rect x="158.908" y="21.36" clip-path="url(#SVGID_74_)" fill="#FFFFFF" width="18.96" height="16.329"/>
	</g>
</g>
<g>
	<defs>
		<path id="SVGID_75_" d="M173.093,30.822c-0.29-0.337-0.31-1.101,0.291-1.101c1.568,0.788,2.484,2.481,2.808,4.155
			c-0.73-0.174-1.475-0.287-2.222-0.337C174.521,32.511,173.63,31.622,173.093,30.822"/>
	</defs>
	<clipPath id="SVGID_76_">
		<use xlink:href="#SVGID_75_"  overflow="visible"/>
	</clipPath>
	<g clip-path="url(#SVGID_76_)">
		<defs>
			<rect id="SVGID_77_" x="-117.33" y="-886.288" width="453.305" height="1450.578"/>
		</defs>
		<clipPath id="SVGID_78_">
			<use xlink:href="#SVGID_77_"  overflow="visible"/>
		</clipPath>
		<rect x="165.814" y="22.639" clip-path="url(#SVGID_78_)" fill="#FFFFFF" width="17.461" height="18.321"/>
	</g>
</g>
<g>
	<defs>
		<path id="SVGID_79_" d="M166.357,33.767c1.446-0.293,2.637-1.301,3.485-2.474c0.684,1.284,2.015,2.161,3.412,2.49
			c-1.041,1.049-1.434,2.587-1.31,4.031c-1.297-0.73-2.936-0.59-4.288-0.1C167.783,36.295,167.267,34.849,166.357,33.767"/>
	</defs>
	<clipPath id="SVGID_80_">
		<use xlink:href="#SVGID_79_"  overflow="visible"/>
	</clipPath>
	<g clip-path="url(#SVGID_80_)">
		<defs>
			<rect id="SVGID_81_" x="-117.33" y="-886.288" width="453.305" height="1450.578"/>
		</defs>
		<clipPath id="SVGID_82_">
			<use xlink:href="#SVGID_81_"  overflow="visible"/>
		</clipPath>
		<rect x="159.274" y="24.21" clip-path="url(#SVGID_82_)" fill="#FFFFFF" width="21.062" height="20.688"/>
	</g>
</g>
<g>
	<defs>
		<path id="SVGID_83_" d="M163.996,31.987c0.545,0.528,1.073,1.082,1.68,1.547c-1.61,0.637-0.228,2.756-1.447,3.613
			c-0.717-0.462-0.783-1.378-0.836-2.145C163.316,33.96,163.648,32.953,163.996,31.987"/>
	</defs>
	<clipPath id="SVGID_84_">
		<use xlink:href="#SVGID_83_"  overflow="visible"/>
	</clipPath>
	<g clip-path="url(#SVGID_84_)">
		<defs>
			<rect id="SVGID_85_" x="-117.33" y="-886.288" width="453.305" height="1450.578"/>
		</defs>
		<clipPath id="SVGID_86_">
			<use xlink:href="#SVGID_85_"  overflow="visible"/>
		</clipPath>
		<rect x="156.299" y="24.904" clip-path="url(#SVGID_86_)" fill="#FFFFFF" width="16.459" height="19.326"/>
	</g>
</g>
<g>
	<defs>
		<path id="SVGID_87_" d="M172.399,38.373c1.671,0.357,1.782-2.155,3.31-2.069c0.021,0.349,0.116,0.711-0.033,1.043
			c-0.526,1.408-1.649,2.484-2.914,3.248C172.658,39.851,172.551,39.109,172.399,38.373"/>
	</defs>
	<clipPath id="SVGID_88_">
		<use xlink:href="#SVGID_87_"  overflow="visible"/>
	</clipPath>
	<g clip-path="url(#SVGID_88_)">
		<defs>
			<rect id="SVGID_89_" x="-117.33" y="-886.288" width="453.305" height="1450.578"/>
		</defs>
		<clipPath id="SVGID_90_">
			<use xlink:href="#SVGID_89_"  overflow="visible"/>
		</clipPath>
		<rect x="165.316" y="29.218" clip-path="url(#SVGID_90_)" fill="#FFFFFF" width="17.524" height="18.46"/>
	</g>
</g>
<g>
	<defs>
		<path id="SVGID_91_" d="M165.228,39.422c0.686-0.318,1.358-0.658,1.983-1.085c0.116,1.281,1.594,1.381,2.518,1.802
			c0.448,0.097,0.379,0.578,0.396,0.927C168.34,41.469,166.538,40.587,165.228,39.422"/>
	</defs>
	<clipPath id="SVGID_92_">
		<use xlink:href="#SVGID_91_"  overflow="visible"/>
	</clipPath>
	<g clip-path="url(#SVGID_92_)">
		<defs>
			<rect id="SVGID_93_" x="-117.33" y="-886.288" width="453.305" height="1450.578"/>
		</defs>
		<clipPath id="SVGID_94_">
			<use xlink:href="#SVGID_93_"  overflow="visible"/>
		</clipPath>
		<rect x="158.145" y="31.254" clip-path="url(#SVGID_94_)" fill="#FFFFFF" width="19.062" height="16.994"/>
	</g>
</g>
<g>
	<defs>
		<rect id="SVGID_95_" x="49.044" y="23.156" width="19.588" height="5.234"/>
	</defs>
	<clipPath id="SVGID_96_">
		<use xlink:href="#SVGID_95_"  overflow="visible"/>
	</clipPath>
	<g clip-path="url(#SVGID_96_)">
		<defs>
			<rect id="SVGID_97_" x="-117.33" y="-886.288" width="453.305" height="1450.578"/>
		</defs>
		<clipPath id="SVGID_98_">
			<use xlink:href="#SVGID_97_"  overflow="visible"/>
		</clipPath>
		<g clip-path="url(#SVGID_98_)" enable-background="new    ">
			<g>
				<defs>
					<rect id="SVGID_99_" x="48.41" y="21.739" width="21.249" height="7.083"/>
				</defs>
				<clipPath id="SVGID_100_">
					<use xlink:href="#SVGID_99_"  overflow="visible"/>
				</clipPath>
				<g clip-path="url(#SVGID_100_)">
					<defs>
						<path id="SVGID_101_" d="M51.099,25.918c1.752-1.437,3.89-2.51,6.163-2.726c1.711-0.008,3.482-0.196,5.131,0.382
							c2.41,0.771,4.648,2.266,6.106,4.352l0.133,0.451c-0.833-0.02-1.671,0.036-2.505-0.027c-0.764-0.435-1.324-1.162-2.101-1.592
							c-3.007-1.978-7.13-2.014-10.171-0.082c-0.831,0.442-1.441,1.189-2.232,1.682c-0.858,0.061-1.72,0.017-2.579,0.006
							C49.469,27.359,50.305,26.625,51.099,25.918"/>
					</defs>
					<clipPath id="SVGID_102_">
						<use xlink:href="#SVGID_101_"  overflow="visible"/>
					</clipPath>
					<g clip-path="url(#SVGID_102_)">
						<defs>
							<rect id="SVGID_103_" x="48.41" y="23.156" width="21.249" height="5.666"/>
						</defs>
						<clipPath id="SVGID_104_">
							<use xlink:href="#SVGID_103_"  overflow="visible"/>
						</clipPath>
						<rect x="41.961" y="16.073" clip-path="url(#SVGID_104_)" fill="#EC2024" width="33.754" height="19.4"/>
					</g>
				</g>
			</g>
		</g>
	</g>
</g>
<g>
	<defs>
		<rect id="SVGID_105_" x="159.733" y="25.23" width="19.965" height="19.694"/>
	</defs>
	<clipPath id="SVGID_106_">
		<use xlink:href="#SVGID_105_"  overflow="visible"/>
	</clipPath>
	<g clip-path="url(#SVGID_106_)">
		<defs>
			<rect id="SVGID_107_" x="-117.33" y="-886.288" width="453.305" height="1450.578"/>
		</defs>
		<clipPath id="SVGID_108_">
			<use xlink:href="#SVGID_107_"  overflow="visible"/>
		</clipPath>
		<g clip-path="url(#SVGID_108_)" enable-background="new    ">
			<g>
				<defs>
					<rect id="SVGID_109_" x="158.903" y="24.572" width="21.249" height="21.249"/>
				</defs>
				<clipPath id="SVGID_110_">
					<use xlink:href="#SVGID_109_"  overflow="visible"/>
				</clipPath>
				<g clip-path="url(#SVGID_110_)">
					<defs>
						<path id="SVGID_111_" d="M165.142,25.989c1.062-0.507,2.318-1.024,3.486-0.606c1.093,0.596,1.648,1.787,2.321,2.781
							c0.769-0.795,1.153-2.164,2.396-2.33c1.66,0.053,3.002,1.251,4.031,2.443c0.642,0.836,1.428,1.887,1.04,2.996
							c-0.437,1.024-1.272,1.796-1.881,2.715c0.96,0.32,2.125,0.362,2.844,1.15c0.691,1.201,0.108,2.629-0.382,3.793
							c-0.522,1.074-1.173,2.184-2.235,2.803c-1.367,0.479-2.717-0.387-3.992-0.791c-0.086,1.165,0.479,2.8-0.761,3.527
							c-1.411,0.676-3.065,0.484-4.546,0.161c-1.026-0.269-2.252-0.75-2.516-1.903c-0.207-1.055-0.097-2.137-0.041-3.199
							c-1.14,0.305-2.515,1.323-3.605,0.382c-0.904-0.913-1.226-2.238-1.469-3.461c-0.122-1.17-0.293-2.59,0.598-3.517
							c0.957-0.755,2.228-0.899,3.361-1.236c-0.569-0.982-1.854-1.823-1.524-3.096C162.757,27.342,164.007,26.601,165.142,25.989
							 M166.251,29.6c-0.409,0.232-0.332,0.993,0.188,1.007c1.11-0.146,2.394-1.084,3.367-0.085
							c0.258-0.714,0.601-1.387,0.982-2.039C169.203,28.33,167.54,28.629,166.251,29.6 M173.093,30.822
							c0.537,0.8,1.428,1.688,0.877,2.715c0.747,0.053,1.491,0.166,2.222,0.34c-0.323-1.674-1.239-3.367-2.808-4.155
							C172.783,29.722,172.803,30.482,173.093,30.822 M166.357,33.767c0.91,1.082,1.427,2.531,1.3,3.948
							c1.353-0.49,2.994-0.631,4.291,0.097c-0.13-1.441,0.266-2.979,1.307-4.028c-1.397-0.329-2.729-1.206-3.412-2.49
							C168.995,32.466,167.803,33.474,166.357,33.767 M163.996,31.987c-0.349,0.966-0.681,1.973-0.604,3.016
							c0.056,0.767,0.119,1.683,0.833,2.145c1.223-0.857-0.16-2.977,1.45-3.613C165.07,33.069,164.541,32.516,163.996,31.987
							 M172.399,38.373c0.152,0.736,0.26,1.48,0.362,2.222c1.265-0.764,2.391-1.84,2.914-3.248c0.149-0.332,0.055-0.694,0.033-1.043
							C174.178,36.218,174.068,38.73,172.399,38.373 M165.228,39.422c1.311,1.165,3.112,2.047,4.896,1.644
							c-0.017-0.349,0.053-0.83-0.396-0.927c-0.924-0.421-2.401-0.521-2.518-1.802C166.586,38.764,165.913,39.104,165.228,39.422"/>
					</defs>
					<clipPath id="SVGID_112_">
						<use xlink:href="#SVGID_111_"  overflow="visible"/>
					</clipPath>
					<g clip-path="url(#SVGID_112_)">
						<defs>
							<rect id="SVGID_113_" x="158.903" y="24.572" width="21.249" height="21.249"/>
						</defs>
						<clipPath id="SVGID_114_">
							<use xlink:href="#SVGID_113_"  overflow="visible"/>
						</clipPath>
						<rect x="152.65" y="18.148" clip-path="url(#SVGID_114_)" fill="#EC2024" width="34.131" height="33.859"/>
					</g>
				</g>
			</g>
		</g>
	</g>
</g>
<g>
	<defs>
		<path id="SVGID_115_" d="M57.316,27.849c0.811-0.446,1.624-0.886,2.444-1.312c0.008,1.268-0.002,2.534,0.011,3.799
			c0.837,0.02,1.672,0.02,2.508,0.03c-0.008,0.75-0.011,1.5-0.011,2.249h-2.504c0.002,2.108-0.004,4.223,0,6.333
			c-0.004,0.493,0.054,1.079,0.523,1.356c0.899,0.271,1.82-0.086,2.587-0.551c-0.188,0.786-0.376,1.571-0.576,2.357
			c-1.065,0.556-2.404,0.816-3.505,0.219c-1.034-0.537-1.497-1.763-1.472-2.875c0-2.274-0.017-4.543,0.013-6.814
			c-0.703-0.027-1.406-0.03-2.107-0.027c0.005-0.786-0.086-1.589,0.125-2.357c0.656,0.104,1.32,0.136,1.978,0.024
			C57.316,29.47,57.316,28.659,57.316,27.849"/>
	</defs>
	<clipPath id="SVGID_116_">
		<use xlink:href="#SVGID_115_"  overflow="visible"/>
	</clipPath>
	<g clip-path="url(#SVGID_116_)">
		<defs>
			<rect id="SVGID_117_" x="-117.33" y="-886.288" width="453.305" height="1450.578"/>
		</defs>
		<clipPath id="SVGID_118_">
			<use xlink:href="#SVGID_117_"  overflow="visible"/>
		</clipPath>
		<rect x="48.131" y="19.454" clip-path="url(#SVGID_118_)" fill="#104B84" width="21.827" height="30.299"/>
	</g>
</g>
<g>
	<defs>
		<path id="SVGID_119_" d="M71.236,27.859c0.81-0.442,1.61-0.902,2.446-1.292c0.015,1.627,0.003,3.248,0.008,4.872
			c0.988-0.818,2.211-1.455,3.533-1.347c1.715-0.028,3.304,1.104,3.987,2.653c0.819,1.834,0.916,3.95,0.512,5.901
			c-0.415,1.867-1.834,3.558-3.753,3.962c-1.523,0.42-3.108-0.213-4.279-1.19c0,0.352-0.002,0.703-0.002,1.055
			c-0.819,0-1.638,0-2.454-0.003C71.233,37.602,71.23,32.729,71.236,27.859 M73.676,33.774c-0.005,1.729,0,3.462-0.003,5.193
			c0.645,0.643,1.388,1.245,2.299,1.45c1.121,0.329,2.459-0.152,3.01-1.206c0.734-1.334,0.664-2.952,0.39-4.402
			c-0.239-1.168-1.074-2.415-2.373-2.479C75.704,32.126,74.53,32.879,73.676,33.774"/>
	</defs>
	<clipPath id="SVGID_120_">
		<use xlink:href="#SVGID_119_"  overflow="visible"/>
	</clipPath>
	<g clip-path="url(#SVGID_120_)">
		<defs>
			<rect id="SVGID_121_" x="-117.33" y="-886.288" width="453.305" height="1450.578"/>
		</defs>
		<clipPath id="SVGID_122_">
			<use xlink:href="#SVGID_121_"  overflow="visible"/>
		</clipPath>
		<rect x="64.15" y="19.484" clip-path="url(#SVGID_122_)" fill="#104B84" width="24.886" height="30.338"/>
	</g>
</g>
<g>
	<defs>
		<rect id="SVGID_123_" x="38.494" y="30.111" width="10.66" height="12.603"/>
	</defs>
	<clipPath id="SVGID_124_">
		<use xlink:href="#SVGID_123_"  overflow="visible"/>
	</clipPath>
	<g clip-path="url(#SVGID_124_)">
		<defs>
			<rect id="SVGID_125_" x="-117.33" y="-886.288" width="453.305" height="1450.578"/>
		</defs>
		<clipPath id="SVGID_126_">
			<use xlink:href="#SVGID_125_"  overflow="visible"/>
		</clipPath>
		<g clip-path="url(#SVGID_126_)" enable-background="new    ">
			<g>
				<defs>
					<rect id="SVGID_127_" x="37.077" y="28.822" width="12.749" height="14.166"/>
				</defs>
				<clipPath id="SVGID_128_">
					<use xlink:href="#SVGID_127_"  overflow="visible"/>
				</clipPath>
				<g clip-path="url(#SVGID_128_)">
					<defs>
						<path id="SVGID_129_" d="M39.299,33.139c1.823-3.423,7.346-4.191,9.767-1.023c-0.191,0.722-0.883,1.209-1.314,1.801
							c-0.566-0.528-1.187-1.035-1.945-1.251c-1.647-0.578-3.633,0.282-4.369,1.862c-0.989,1.929-0.238,4.709,1.881,5.509
							c1.569,0.711,3.301-0.011,4.477-1.115c0.461,0.564,0.926,1.123,1.358,1.71c-0.96,1.126-2.305,1.948-3.803,2.066
							c-2.188,0.161-4.556-0.722-5.795-2.601C38.22,38.061,38.155,35.271,39.299,33.139"/>
					</defs>
					<clipPath id="SVGID_130_">
						<use xlink:href="#SVGID_129_"  overflow="visible"/>
					</clipPath>
					<g clip-path="url(#SVGID_130_)">
						<defs>
							<rect id="SVGID_131_" x="38.494" y="28.822" width="11.333" height="14.166"/>
						</defs>
						<clipPath id="SVGID_132_">
							<use xlink:href="#SVGID_131_"  overflow="visible"/>
						</clipPath>
						<rect x="31.411" y="23.029" clip-path="url(#SVGID_132_)" fill="#104B84" width="24.826" height="26.768"/>
					</g>
				</g>
			</g>
		</g>
	</g>
</g>
<g>
	<defs>
		<path id="SVGID_133_" d="M84.193,31.169c1.585-1.005,3.563-1.284,5.398-1.005c1.296,0.183,2.598,0.886,3.18,2.105
			c0.365,0.684,0.405,1.472,0.412,2.233c0,2.653-0.007,5.309,0.003,7.965c-0.817,0.012-1.631,0.012-2.444,0.006
			c-0.008-0.391-0.015-0.783-0.02-1.176c-1.659,1.682-4.562,1.953-6.393,0.401c-1.263-1.055-1.592-2.936-1.075-4.452
			c0.384-1.153,1.463-1.956,2.604-2.271c1.591-0.432,3.316-0.376,4.877,0.158c0.061-0.944,0.006-2.101-0.96-2.59
			c-1.494-0.681-3.25-0.266-4.674,0.401C84.812,32.345,84.508,31.755,84.193,31.169 M85.811,37.443
			c-0.852,0.759-0.534,2.305,0.457,2.798c1.496,0.755,3.395,0.118,4.401-1.151c0.14-0.598,0.048-1.226,0.054-1.837
			c-0.691-0.258-1.412-0.451-2.158-0.46C87.623,36.758,86.531,36.725,85.811,37.443"/>
	</defs>
	<clipPath id="SVGID_134_">
		<use xlink:href="#SVGID_133_"  overflow="visible"/>
	</clipPath>
	<g clip-path="url(#SVGID_134_)">
		<defs>
			<rect id="SVGID_135_" x="-117.33" y="-886.288" width="453.305" height="1450.578"/>
		</defs>
		<clipPath id="SVGID_136_">
			<use xlink:href="#SVGID_135_"  overflow="visible"/>
		</clipPath>
		<rect x="75.936" y="22.979" clip-path="url(#SVGID_136_)" fill="#104B84" width="24.333" height="26.83"/>
	</g>
</g>
<g>
	<defs>
		<path id="SVGID_137_" d="M97.822,31.332c1.469-1.425,3.893-1.654,5.646-0.647c1.332,0.874,1.767,2.562,1.797,4.067
			c0.033,2.567-0.011,5.141,0.024,7.708c-0.796,0.017-1.591,0.017-2.387,0.014c-0.002-2.244,0.008-4.49-0.002-6.734
			c-0.072-1.046-0.108-2.277-0.978-3.01c-0.772-0.573-1.868-0.579-2.72-0.191c-0.97,0.507-1.396,1.663-1.374,2.706
			c-0.017,2.41,0.011,4.825-0.011,7.235c-0.816-0.006-1.625-0.006-2.438-0.006c-0.008-4.037,0.017-8.073-0.011-12.107
			c0.82-0.069,1.646-0.05,2.468,0C97.833,30.609,97.824,31.091,97.822,31.332"/>
	</defs>
	<clipPath id="SVGID_138_">
		<use xlink:href="#SVGID_137_"  overflow="visible"/>
	</clipPath>
	<g clip-path="url(#SVGID_138_)">
		<defs>
			<rect id="SVGID_139_" x="-117.33" y="-886.288" width="453.305" height="1450.578"/>
		</defs>
		<clipPath id="SVGID_140_">
			<use xlink:href="#SVGID_139_"  overflow="visible"/>
		</clipPath>
		<rect x="88.284" y="22.982" clip-path="url(#SVGID_140_)" fill="#104B84" width="24.086" height="26.58"/>
	</g>
</g>
<g>
	<defs>
		<path id="SVGID_141_" d="M107.978,31.074c1.988-1.034,4.421-1.383,6.551-0.581c1.426,0.531,2.419,1.984,2.371,3.509
			c0.021,2.824,0,5.646,0.009,8.472h-2.44c-0.006-0.379-0.011-0.758-0.011-1.14c-0.97,0.808-2.169,1.436-3.462,1.405
			c-1.401-0.027-2.888-0.634-3.65-1.862c-0.762-1.312-0.834-3.052-0.004-4.352c0.639-0.963,1.763-1.514,2.88-1.696
			c1.417-0.271,2.886-0.136,4.261,0.282c0.042-0.949-0.031-2.125-1.018-2.59c-1.504-0.661-3.217-0.207-4.656,0.409
			C108.512,32.319,108.219,31.711,107.978,31.074 M110.606,36.874c-0.571,0.135-1.124,0.473-1.406,1.004
			c-0.386,0.869,0.01,2.025,0.903,2.407c1.312,0.614,2.886,0.163,3.92-0.777c0.702-0.51,0.432-1.505,0.38-2.238
			C113.233,36.705,111.865,36.71,110.606,36.874"/>
	</defs>
	<clipPath id="SVGID_142_">
		<use xlink:href="#SVGID_141_"  overflow="visible"/>
	</clipPath>
	<g clip-path="url(#SVGID_142_)">
		<defs>
			<rect id="SVGID_143_" x="-117.33" y="-886.288" width="453.305" height="1450.578"/>
		</defs>
		<clipPath id="SVGID_144_">
			<use xlink:href="#SVGID_143_"  overflow="visible"/>
		</clipPath>
		<rect x="99.664" y="22.968" clip-path="url(#SVGID_144_)" fill="#104B84" width="24.329" height="26.854"/>
	</g>
</g>
<g>
	<defs>
		<path id="SVGID_145_" d="M121.534,31.352c1.636-1.799,5.018-1.758,6.304,0.426c0.731-0.853,1.711-1.583,2.872-1.651
			c1.286-0.1,2.774-0.092,3.769,0.865c1.041,1.049,1.203,2.615,1.25,4.018c0.023,2.487,0.003,4.978,0.009,7.465
			c-0.811,0-1.626,0-2.436,0.006c-0.027-2.416,0.012-4.831-0.018-7.249c-0.034-0.988-0.195-2.184-1.149-2.723
			c-0.844-0.359-1.93-0.346-2.646,0.282c-0.714,0.702-0.794,1.771-0.798,2.714c0,2.324,0.001,4.646,0.001,6.97
			c-0.815,0-1.632,0-2.444,0c-0.005-2.327,0.005-4.653-0.003-6.98c-0.021-0.924-0.084-1.965-0.731-2.687
			c-0.977-0.86-2.775-0.697-3.461,0.459c-0.45,0.73-0.514,1.624-0.526,2.463c0.01,2.246,0,4.493,0.008,6.739
			c-0.819,0.012-1.634,0.012-2.453-0.003c0.003-4.03-0.003-8.062,0.003-12.093c0.813-0.022,1.63-0.022,2.445-0.02
			C121.532,30.685,121.534,31.02,121.534,31.352"/>
	</defs>
	<clipPath id="SVGID_146_">
		<use xlink:href="#SVGID_145_"  overflow="visible"/>
	</clipPath>
	<g clip-path="url(#SVGID_146_)">
		<defs>
			<rect id="SVGID_147_" x="-117.33" y="-886.288" width="453.305" height="1450.578"/>
		</defs>
		<clipPath id="SVGID_148_">
			<use xlink:href="#SVGID_147_"  overflow="visible"/>
		</clipPath>
		<rect x="111.998" y="22.982" clip-path="url(#SVGID_148_)" fill="#104B84" width="30.824" height="26.58"/>
	</g>
</g>
<g>
	<defs>
		<path id="SVGID_149_" d="M138.401,32.355c1.646-2.623,5.777-3.099,7.979-0.927c1.514,1.505,1.909,3.785,1.683,5.838
			c-2.784-0.006-5.57,0.014-8.354-0.011c0.139,1.126,0.631,2.288,1.657,2.869c1.414,0.797,3.183,0.323,4.449-0.551
			c0.451,0.52,0.899,1.046,1.334,1.582c-1.722,1.522-4.35,2.062-6.478,1.115c-1.646-0.708-2.779-2.327-3.137-4.053
			C137.087,36.26,137.329,34.076,138.401,32.355 M140.653,33.1c-0.536,0.554-0.711,1.331-0.96,2.036
			c0.681,0.225,1.397,0.158,2.104,0.161c1.311-0.017,2.625,0.03,3.939-0.036c-0.116-0.637-0.222-1.304-0.614-1.837
			C144.167,31.982,141.801,31.797,140.653,33.1"/>
	</defs>
	<clipPath id="SVGID_150_">
		<use xlink:href="#SVGID_149_"  overflow="visible"/>
	</clipPath>
	<g clip-path="url(#SVGID_150_)">
		<defs>
			<rect id="SVGID_151_" x="-117.33" y="-886.288" width="453.305" height="1450.578"/>
		</defs>
		<clipPath id="SVGID_152_">
			<use xlink:href="#SVGID_151_"  overflow="visible"/>
		</clipPath>
		<rect x="130.24" y="22.974" clip-path="url(#SVGID_152_)" fill="#104B84" width="24.964" height="26.852"/>
	</g>
</g>
<g>
	<defs>
		<path id="SVGID_153_" d="M50.535,30.35c0.813-0.083,1.634-0.083,2.453-0.069c0.096,0.664,0.118,1.334,0.101,2.006
			c-0.136,2.629,0.103,5.263-0.057,7.891c-0.044,0.764-0.004,1.53,0.048,2.297c-0.847,0.003-1.697,0-2.545-0.006V30.35z"/>
	</defs>
	<clipPath id="SVGID_154_">
		<use xlink:href="#SVGID_153_"  overflow="visible"/>
	</clipPath>
	<g clip-path="url(#SVGID_154_)">
		<defs>
			<rect id="SVGID_155_" x="-117.33" y="-886.288" width="453.305" height="1450.578"/>
		</defs>
		<clipPath id="SVGID_156_">
			<use xlink:href="#SVGID_155_"  overflow="visible"/>
		</clipPath>
		<rect x="43.452" y="23.189" clip-path="url(#SVGID_156_)" fill="#104B84" width="16.725" height="26.37"/>
	</g>
</g>
<g>
	<defs>
		<path id="SVGID_157_" d="M64.795,30.28c0.827-0.005,1.655-0.008,2.482,0.028c-0.02,4.062,0.022,8.117-0.022,12.179
			c-0.824-0.014-1.643-0.014-2.465-0.014C64.792,38.409,64.777,34.345,64.795,30.28"/>
	</defs>
	<clipPath id="SVGID_158_">
		<use xlink:href="#SVGID_157_"  overflow="visible"/>
	</clipPath>
	<g clip-path="url(#SVGID_158_)">
		<defs>
			<rect id="SVGID_159_" x="-117.33" y="-886.288" width="453.305" height="1450.578"/>
		</defs>
		<clipPath id="SVGID_160_">
			<use xlink:href="#SVGID_159_"  overflow="visible"/>
		</clipPath>
		<rect x="57.703" y="23.195" clip-path="url(#SVGID_160_)" fill="#104B84" width="16.656" height="26.375"/>
	</g>
</g>
<g>
	<defs>
		<path id="SVGID_161_" d="M151.812,36.207c-1.062-2.006-2.438-3.854-3.349-5.927c0.902,0.069,1.808,0.083,2.715,0.092
			c0.672,1.33,1.444,2.601,2.075,3.953c0.984-1.192,1.366-2.803,2.357-3.965c0.835-0.061,1.676,0.028,2.512-0.061
			c-0.863,2.083-2.249,3.906-3.32,5.891c1.256,2.086,2.49,4.181,3.725,6.277c-0.958,0.012-1.915,0.012-2.869-0.005
			c-0.786-1.508-1.597-3.005-2.404-4.505c-0.756,1.55-1.61,3.041-2.477,4.526c-0.888-0.011-1.776-0.011-2.662-0.017
			C149.338,40.376,150.552,38.279,151.812,36.207"/>
	</defs>
	<clipPath id="SVGID_162_">
		<use xlink:href="#SVGID_161_"  overflow="visible"/>
	</clipPath>
	<g clip-path="url(#SVGID_162_)">
		<defs>
			<rect id="SVGID_163_" x="-117.33" y="-886.288" width="453.305" height="1450.578"/>
		</defs>
		<clipPath id="SVGID_164_">
			<use xlink:href="#SVGID_163_"  overflow="visible"/>
		</clipPath>
		<rect x="141.032" y="23.198" clip-path="url(#SVGID_164_)" fill="#104B84" width="24.577" height="26.37"/>
	</g>
</g>
</svg>
