<?xml version="1.0" encoding="utf-8"?>
<!-- Generator: Adobe Illustrator 16.0.0, SVG Export Plug-In . SVG Version: 6.00 Build 0)  -->
<!DOCTYPE svg PUBLIC "-//W3C//DTD SVG 1.1//EN" "http://www.w3.org/Graphics/SVG/1.1/DTD/svg11.dtd">
<svg version="1.1" id="Capa_1" xmlns="http://www.w3.org/2000/svg" xmlns:xlink="http://www.w3.org/1999/xlink" x="0px" y="0px"
	 width="126.333px" height="37.833px" viewBox="-10 -5.833 126.333 37.833" enable-background="new -10 -5.833 126.333 37.833"
	 xml:space="preserve">
<title>Page 1</title>
<desc>Created with Sketch.</desc>
<g id="Page-1">
	<g transform="translate(0.000000, -1.000000)">
		<path id="Fill-1" fill="#020203" d="M31.847,5.22c0.269,0,0.524,0.051,0.762,0.15c0.239,0.101,0.442,0.239,0.61,0.412
			c0.167,0.177,0.3,0.38,0.396,0.611c0.097,0.233,0.145,0.479,0.145,0.743c0,0.25-0.052,0.485-0.154,0.704
			c-0.104,0.22-0.242,0.414-0.416,0.581c-0.174,0.169-0.377,0.304-0.61,0.404c-0.232,0.102-0.477,0.151-0.733,0.151h-1.625v7.793
			c0,0.288-0.059,0.559-0.174,0.815c-0.117,0.26-0.275,0.484-0.474,0.678c-0.2,0.194-0.435,0.349-0.706,0.459
			c-0.27,0.113-0.554,0.17-0.851,0.17c-0.309,0-0.6-0.057-0.87-0.17c-0.271-0.11-0.507-0.265-0.706-0.459
			c-0.199-0.193-0.357-0.422-0.473-0.686c-0.116-0.262-0.175-0.545-0.175-0.845V8.939h-3.035L22.739,5.22H31.847z"/>
		<path id="Fill-3" fill="#020203" d="M32.852,10.553c0-0.313,0.063-0.599,0.193-0.854c0.128-0.256,0.303-0.477,0.522-0.658
			c0.219-0.18,0.467-0.322,0.744-0.421c0.278-0.101,0.572-0.151,0.881-0.151c0.218,0,0.438,0.028,0.658,0.084
			c0.218,0.057,0.411,0.144,0.578,0.264c0.167,0.119,0.302,0.264,0.407,0.44c0.102,0.176,0.155,0.382,0.155,0.62
			c0.18-0.4,0.447-0.726,0.802-0.977C38.145,8.651,38.55,8.525,39,8.525c0.271,0,0.53,0.051,0.775,0.151
			c0.244,0.099,0.457,0.233,0.639,0.402c0.179,0.169,0.319,0.371,0.423,0.602c0.105,0.231,0.155,0.478,0.155,0.741
			c0,0.54-0.131,0.936-0.395,1.194c-0.265,0.255-0.584,0.46-0.958,0.609c-0.374,0.15-0.762,0.29-1.16,0.414
			c-0.401,0.125-0.729,0.325-0.986,0.6c-0.22,0.213-0.335,0.469-0.349,0.771c-0.013,0.3-0.019,0.588-0.019,0.863v3.886h-4.273
			V10.553z"/>
		<path id="Fill-5" fill="#020203" d="M45.538,14.355c0.062,0.195,0.159,0.368,0.288,0.518c0.129,0.149,0.28,0.272,0.454,0.364
			c0.174,0.095,0.377,0.143,0.61,0.143c0.232,0,0.439-0.048,0.62-0.143c0.179-0.092,0.333-0.216,0.462-0.375
			c0.129-0.156,0.229-0.333,0.3-0.534c0.072-0.201,0.108-0.401,0.108-0.602c0-0.437-0.134-0.819-0.398-1.144
			c-0.263-0.326-0.63-0.489-1.092-0.489c-0.233,0-0.436,0.05-0.61,0.151c-0.174,0.099-0.325,0.228-0.454,0.384
			c-0.129,0.157-0.226,0.337-0.288,0.535c-0.067,0.2-0.098,0.402-0.098,0.6C45.439,13.965,45.471,14.163,45.538,14.355
			 M48.977,9.099c0.117-0.158,0.263-0.282,0.437-0.376c0.173-0.093,0.359-0.165,0.559-0.216c0.2-0.05,0.391-0.075,0.572-0.075
			c0.657,0,1.15,0.195,1.479,0.582c0.328,0.389,0.493,0.884,0.493,1.484v8.242h-3.733c-0.013-0.174-0.022-0.351-0.028-0.534
			c-0.008-0.182,0.004-0.353,0.028-0.517c-0.284,0.438-0.631,0.752-1.044,0.94c-0.411,0.187-0.882,0.281-1.41,0.281
			c-0.735,0-1.418-0.132-2.051-0.394c-0.631-0.263-1.179-0.624-1.643-1.08c-0.464-0.457-0.826-0.998-1.084-1.624
			c-0.256-0.627-0.386-1.297-0.386-2.01c0-0.713,0.126-1.395,0.377-2.046c0.252-0.651,0.602-1.225,1.055-1.718
			c0.451-0.495,0.996-0.89,1.633-1.183c0.639-0.294,1.337-0.443,2.099-0.443c0.502,0,0.969,0.094,1.401,0.281
			c0.432,0.189,0.784,0.501,1.053,0.94C48.798,9.434,48.86,9.255,48.977,9.099"/>
		<path id="Fill-7" fill="#020203" d="M53.193,10.553c0-0.275,0.051-0.544,0.156-0.808c0.1-0.262,0.247-0.491,0.434-0.685
			c0.186-0.194,0.408-0.35,0.668-0.47c0.257-0.118,0.533-0.178,0.83-0.178c0.412,0,0.772,0.119,1.084,0.357
			c0.309,0.238,0.508,0.551,0.599,0.939c0.322-0.451,0.724-0.776,1.208-0.977c0.484-0.2,1.003-0.3,1.557-0.3
			c0.541,0,1.067,0.079,1.576,0.235c0.51,0.157,0.963,0.388,1.363,0.695c0.4,0.307,0.717,0.682,0.959,1.127
			c0.236,0.444,0.355,0.947,0.355,1.511v4.807c0,0.289-0.058,0.557-0.174,0.809c-0.115,0.249-0.271,0.473-0.463,0.666
			c-0.193,0.193-0.422,0.348-0.678,0.459c-0.258,0.113-0.536,0.168-0.831,0.168c-0.31,0-0.597-0.052-0.86-0.159
			c-0.265-0.104-0.494-0.253-0.686-0.442c-0.195-0.186-0.35-0.404-0.467-0.654c-0.113-0.25-0.172-0.526-0.172-0.827V12.92
			c0-0.288-0.106-0.536-0.319-0.742c-0.214-0.207-0.468-0.311-0.763-0.311c-0.299,0-0.553,0.104-0.766,0.311
			c-0.213,0.206-0.32,0.454-0.32,0.742v5.8h-4.291V10.553z"/>
		<path id="Fill-9" fill="#E42720" d="M70.422,15.482c0.137-0.06,0.205-0.183,0.205-0.367c0-0.06-0.022-0.11-0.069-0.146
			c-0.05-0.036-0.103-0.063-0.165-0.084c-0.065-0.021-0.133-0.038-0.207-0.054c-0.073-0.015-0.131-0.032-0.174-0.054l-0.016,0.874
			C70.144,15.603,70.285,15.544,70.422,15.482z M69.207,10.502c-0.041,0-0.097,0.005-0.164,0.015
			c-0.069,0.011-0.139,0.028-0.207,0.052c-0.067,0.027-0.127,0.058-0.172,0.094c-0.048,0.036-0.072,0.083-0.072,0.145
			c0,0.072,0.033,0.135,0.103,0.191c0.069,0.057,0.149,0.106,0.245,0.146c0.094,0.042,0.189,0.077,0.284,0.107
			s0.168,0.051,0.22,0.062l0.016-0.782C69.355,10.512,69.271,10.502,69.207,10.502z M69.443,14.655
			c-0.473-0.092-0.971-0.208-1.491-0.352c-0.52-0.143-1.003-0.34-1.444-0.589c-0.441-0.252-0.805-0.569-1.088-0.952
			c-0.285-0.383-0.428-0.865-0.428-1.448c0-0.573,0.135-1.082,0.405-1.534c0.265-0.448,0.616-0.831,1.047-1.149
			c0.433-0.316,0.912-0.567,1.438-0.751c0.523-0.185,1.05-0.301,1.576-0.351v-1.41c0-0.082,0.026-0.154,0.08-0.216
			c0.053-0.06,0.121-0.091,0.207-0.091c0.094,0,0.163,0.034,0.211,0.099c0.047,0.067,0.07,0.141,0.07,0.223v1.378
			c0.338,0.011,0.714,0.05,1.13,0.115c0.413,0.067,0.804,0.182,1.167,0.346c0.363,0.163,0.668,0.38,0.914,0.651
			c0.248,0.271,0.372,0.615,0.372,1.034c0,0.42-0.144,0.772-0.433,1.057c-0.291,0.287-0.651,0.43-1.08,0.43
			c-0.191,0-0.369-0.02-0.538-0.06c-0.168-0.041-0.337-0.089-0.505-0.146s-0.338-0.114-0.506-0.169
			c-0.168-0.056-0.342-0.1-0.521-0.131l-0.016,0.812c0.095,0.01,0.212,0.035,0.348,0.077c0.453,0.122,0.916,0.262,1.391,0.42
			c0.471,0.16,0.905,0.363,1.301,0.614c0.394,0.251,0.72,0.561,0.971,0.935c0.254,0.374,0.38,0.84,0.38,1.403
			c0,0.552-0.131,1.062-0.388,1.533c-0.258,0.47-0.598,0.878-1.021,1.225c-0.42,0.347-0.89,0.621-1.411,0.822
			c-0.521,0.196-1.049,0.297-1.586,0.297v1.38h-0.568v-1.35c-0.758,0-1.498-0.105-2.226-0.314c-0.725-0.209-1.436-0.457-2.13-0.744
			l0.898-3.018c0.272,0.091,0.553,0.192,0.839,0.298c0.282,0.108,0.569,0.21,0.86,0.306c0.287,0.098,0.578,0.178,0.867,0.239
			c0.288,0.061,0.586,0.092,0.891,0.092L69.443,14.655z"/>
		<path id="Fill-11" fill="#020203" d="M76.734,7.051c0.059-0.532,0.188-1.017,0.387-1.454c0.201-0.439,0.49-0.798,0.869-1.079
			c0.382-0.284,0.9-0.424,1.559-0.424h0.909c0.31,0,0.621,0.041,0.937,0.122c0.318,0.082,0.603,0.205,0.861,0.367
			c0.257,0.161,0.466,0.369,0.627,0.618c0.162,0.251,0.243,0.546,0.243,0.883c0,0.238-0.048,0.468-0.144,0.686
			c-0.1,0.219-0.229,0.409-0.397,0.572c-0.167,0.165-0.366,0.289-0.589,0.376c-0.229,0.088-0.463,0.119-0.707,0.094
			c-0.104,0.025-0.198,0.076-0.28,0.151c-0.085,0.074-0.127,0.169-0.127,0.281c0,0.063,0.004,0.12,0.011,0.17
			c0.006,0.05,0.01,0.105,0.01,0.169c0.566,0,1.033,0.168,1.4,0.506c0.368,0.338,0.551,0.788,0.551,1.351
			c0,0.263-0.052,0.507-0.152,0.734c-0.104,0.224-0.246,0.417-0.426,0.571c-0.181,0.159-0.391,0.281-0.631,0.368
			c-0.236,0.087-0.49,0.13-0.763,0.13v6.689h-4.272v-6.707h-0.115c-0.234,0-0.463-0.057-0.686-0.17
			c-0.229-0.111-0.427-0.258-0.602-0.44c-0.174-0.183-0.312-0.383-0.415-0.6c-0.103-0.222-0.154-0.443-0.154-0.666
			c0-0.277,0.054-0.524,0.163-0.743c0.11-0.219,0.258-0.405,0.445-0.554c0.188-0.15,0.398-0.266,0.638-0.349
			c0.239-0.08,0.494-0.12,0.763-0.12C76.646,8.093,76.676,7.584,76.734,7.051"/>
		<path id="Fill-13" fill="#020203" d="M89.855,12.638c-0.026-0.301-0.133-0.557-0.319-0.771c-0.188-0.212-0.444-0.319-0.765-0.319
			c-0.334,0-0.605,0.107-0.812,0.319c-0.208,0.214-0.341,0.47-0.405,0.771H89.855z M88.491,15.361
			c0.393,0.125,0.797,0.187,1.209,0.187c0.362,0,0.715-0.028,1.063-0.085c0.348-0.056,0.69-0.115,1.023-0.177l0.465,3.192
			c-0.477,0.15-0.96,0.256-1.451,0.318c-0.49,0.063-0.978,0.094-1.468,0.094c-0.812,0-1.599-0.11-2.36-0.328
			c-0.762-0.217-1.434-0.549-2.019-0.986c-0.587-0.438-1.06-0.982-1.411-1.633c-0.357-0.651-0.533-1.409-0.533-2.273
			c0-0.787,0.154-1.502,0.465-2.141c0.309-0.639,0.727-1.181,1.256-1.634c0.527-0.449,1.141-0.8,1.836-1.051
			c0.697-0.249,1.432-0.375,2.205-0.375c0.66,0,1.314,0.119,1.973,0.356c0.656,0.239,1.251,0.566,1.779,0.987
			c0.528,0.42,0.955,0.916,1.285,1.491c0.328,0.577,0.494,1.203,0.494,1.879c0,0.589-0.154,0.983-0.467,1.183
			c-0.309,0.2-0.74,0.3-1.292,0.3h-5.03C87.773,15.004,88.098,15.236,88.491,15.361z"/>
		<g id="Group-17" transform="translate(95.000000, 8.351100)">
			<g id="Clip-16">
			</g>
			<defs>
				<filter id="Adobe_OpacityMaskFilter" filterUnits="userSpaceOnUse" x="0.133" y="0.118" width="8.141" height="10.289">
					<feColorMatrix  type="matrix" values="1 0 0 0 0  0 1 0 0 0  0 0 1 0 0  0 0 0 1 0"/>
				</filter>
			</defs>
			<mask maskUnits="userSpaceOnUse" x="0.133" y="0.118" width="8.141" height="10.289" id="mask-2">
				<g filter="url(#Adobe_OpacityMaskFilter)">
					<polygon id="path-1" fill="#FFFFFF" points="0.133,0.118 8.273,0.118 8.273,10.407 0.133,10.407 					"/>
				</g>
			</mask>
			<path id="Fill-15" mask="url(#mask-2)" fill="#020203" d="M0.133,2.202c0-0.313,0.064-0.599,0.192-0.854
				C0.454,1.092,0.629,0.871,0.85,0.69c0.218-0.18,0.467-0.322,0.742-0.421c0.278-0.101,0.57-0.151,0.879-0.151
				c0.222,0,0.439,0.028,0.658,0.084c0.219,0.057,0.414,0.144,0.582,0.264c0.168,0.119,0.301,0.264,0.405,0.44
				c0.103,0.176,0.156,0.382,0.156,0.62c0.179-0.4,0.444-0.726,0.8-0.977C5.428,0.3,5.831,0.174,6.281,0.174
				c0.271,0,0.53,0.051,0.775,0.151c0.244,0.099,0.455,0.233,0.637,0.402s0.322,0.371,0.426,0.602S8.273,1.807,8.273,2.07
				c0,0.54-0.131,0.936-0.395,1.194C7.612,3.519,7.295,3.724,6.92,3.873c-0.375,0.15-0.762,0.29-1.16,0.414
				C5.36,4.412,5.03,4.612,4.774,4.887C4.555,5.1,4.44,5.356,4.426,5.658c-0.014,0.3-0.02,0.588-0.02,0.863v3.886H0.133V2.202z"/>
		</g>
		<g id="Group-20" transform="translate(0.000000, 6.351100)">
			<g id="Clip-19">
			</g>
			<defs>
				<filter id="Adobe_OpacityMaskFilter_1_" filterUnits="userSpaceOnUse" x="0" y="0.562" width="10.818" height="10.316">
					<feColorMatrix  type="matrix" values="1 0 0 0 0  0 1 0 0 0  0 0 1 0 0  0 0 0 1 0"/>
				</filter>
			</defs>
			<mask maskUnits="userSpaceOnUse" x="0" y="0.562" width="10.818" height="10.316" id="mask-4">
				<g filter="url(#Adobe_OpacityMaskFilter_1_)">
					<polygon id="path-3" fill="#FFFFFF" points="0,0.562 10.817,0.562 10.817,10.878 0,10.878 					"/>
				</g>
			</mask>
			<path id="Fill-18" mask="url(#mask-4)" fill="#020203" d="M6.853,4.577c0,0-3.243-0.003-5.69-0.003C0.521,4.574,0,5.078,0,5.702
				s0.522,1.129,1.163,1.129c2.052,0,5.684,0.001,5.684,0.001S6.458,7.214,4.668,8.953c-0.453,0.441-0.453,1.153,0,1.594
				c0.454,0.442,1.189,0.442,1.642,0c1.451-1.409,4.167-4.046,4.167-4.046c0.453-0.44,0.453-1.157,0-1.596
				c0,0-2.344-2.274-4.133-4.012c-0.452-0.441-1.188-0.441-1.642,0c-0.454,0.439-0.454,1.154,0,1.594
				C6.153,3.896,6.853,4.577,6.853,4.577"/>
		</g>
		<path id="Fill-21" fill="#6DC5D2" d="M11.862,16.839c0,0,3.242-0.003,5.692-0.003c0.64,0,1.161,0.504,1.161,1.126
			c0,0.625-0.521,1.129-1.161,1.129c-2.054,0-5.686,0.004-5.686,0.004s0.388,0.383,2.179,2.119c0.452,0.439,0.452,1.154,0,1.595
			c-0.454,0.442-1.19,0.442-1.642,0c-1.453-1.411-4.167-4.046-4.167-4.046c-0.454-0.443-0.454-1.154,0-1.597
			c0,0,2.342-2.275,4.132-4.012c0.453-0.44,1.189-0.44,1.642,0c0.454,0.44,0.454,1.155,0,1.595
			C12.562,16.158,11.862,16.839,11.862,16.839"/>
		<g id="Group-25" transform="translate(7.000000, 0.351100)">
			<g id="Clip-24">
			</g>
			<defs>
				<filter id="Adobe_OpacityMaskFilter_2_" filterUnits="userSpaceOnUse" x="0.897" y="0.648" width="10.817" height="10.316">
					<feColorMatrix  type="matrix" values="1 0 0 0 0  0 1 0 0 0  0 0 1 0 0  0 0 0 1 0"/>
				</filter>
			</defs>
			<mask maskUnits="userSpaceOnUse" x="0.897" y="0.648" width="10.817" height="10.316" id="mask-6">
				<g filter="url(#Adobe_OpacityMaskFilter_2_)">
					<polygon id="path-5" fill="#FFFFFF" points="0.897,0.649 11.715,0.649 11.715,10.964 0.897,10.964 					"/>
				</g>
			</mask>
			<path id="Fill-23" mask="url(#mask-6)" fill="#E42720" d="M4.862,4.665c0,0,3.242-0.003,5.692-0.003
				c0.64,0,1.161,0.503,1.161,1.127c0,0.623-0.521,1.128-1.161,1.128c-2.054,0-5.686,0.001-5.686,0.001s0.388,0.384,2.179,2.123
				c0.452,0.44,0.452,1.153,0,1.592c-0.454,0.442-1.19,0.442-1.642,0C3.952,9.224,1.238,6.588,1.238,6.588
				c-0.454-0.442-0.454-1.157,0-1.597c0,0,2.342-2.274,4.132-4.012c0.453-0.441,1.189-0.441,1.642,0c0.454,0.44,0.454,1.153,0,1.595
				C5.562,3.984,4.862,4.665,4.862,4.665"/>
		</g>
		<path id="Fill-26" fill="#020203" d="M55.82,28.648h0.72c1.012,0,1.793,0.291,1.793,1.102c0,0.865-0.798,1.156-1.694,1.156
			c-0.37,0-0.62,0-0.818-0.031V28.648z M53.921,32.18c0.43,0.063,1.153,0.127,2.153,0.127c1.697,0,2.726-0.248,3.357-0.707
			c0.542-0.402,0.922-0.996,0.922-1.764c0-1.082-0.746-1.768-1.67-1.999v-0.026c0.947-0.334,1.383-0.998,1.383-1.705
			c0-0.801-0.472-1.357-1.078-1.638c-0.604-0.298-1.274-0.413-2.515-0.413c-0.993,0-2.067,0.09-2.553,0.176V32.18z M55.82,25.494
			c0.164-0.029,0.42-0.061,0.896-0.061c0.885,0,1.417,0.28,1.417,0.902c0,0.58-0.532,0.963-1.635,0.963H55.82V25.494z"/>
		<path id="Fill-28" fill="#020203" d="M100.928,32.217l-0.634-1.041c-0.229-0.375-0.459-0.778-0.577-1.021
			c-0.108,0.242-0.36,0.658-0.574,1.021l-0.637,1.041h-1.974l2.233-3.408l-1.895-2.893h1.969l0.303,0.512
			c0.224,0.377,0.451,0.785,0.574,1.026c0.118-0.241,0.361-0.649,0.577-1.026l0.298-0.512h1.967l-1.897,2.893l2.241,3.408H100.928z"
			/>
		<g id="Group-32" transform="translate(61.000000, 25.351100)">
			<g id="Clip-31">
			</g>
			<defs>
				<filter id="Adobe_OpacityMaskFilter_3_" filterUnits="userSpaceOnUse" x="0.16" y="0.428" width="5.43" height="6.572">
					<feColorMatrix  type="matrix" values="1 0 0 0 0  0 1 0 0 0  0 0 1 0 0  0 0 0 1 0"/>
				</filter>
			</defs>
			<mask maskUnits="userSpaceOnUse" x="0.16" y="0.428" width="5.43" height="6.572" id="mask-8">
				<g filter="url(#Adobe_OpacityMaskFilter_3_)">
					<polygon id="path-7" fill="#FFFFFF" points="0.16,0.428 5.59,0.428 5.59,7 0.16,7 					"/>
				</g>
			</mask>
			<path id="Fill-30" mask="url(#mask-8)" fill="#020203" d="M5.59,6.866V2.639c0-1.418-1.006-2.211-2.66-2.211
				c-1.236,0-2.049,0.514-2.262,0.643l0.635,1.148c0.142-0.073,0.735-0.434,1.588-0.434c0.74,0,1.043,0.355,1.043,0.795v0.339
				C3.786,2.858,3.393,2.665,2.647,2.665c-1.322,0-2.487,0.697-2.487,2.091C0.16,6.28,1.325,7,2.451,7
				c0.893,0,1.352-0.441,1.482-0.557v0.422H5.59z M3.934,5.018C3.754,5.319,3.319,5.592,2.78,5.592c-0.71,0-0.961-0.395-0.961-0.837
				c0-0.507,0.34-0.793,0.987-0.793c0.642,0,1.035,0.218,1.127,0.261V5.018z"/>
		</g>
		<g id="Group-35" transform="translate(74.000000, 25.351100)">
			<g id="Clip-34">
			</g>
			<defs>
				<filter id="Adobe_OpacityMaskFilter_4_" filterUnits="userSpaceOnUse" x="0.308" y="0.428" width="5.429" height="6.572">
					<feColorMatrix  type="matrix" values="1 0 0 0 0  0 1 0 0 0  0 0 1 0 0  0 0 0 1 0"/>
				</filter>
			</defs>
			<mask maskUnits="userSpaceOnUse" x="0.308" y="0.428" width="5.429" height="6.572" id="mask-10">
				<g filter="url(#Adobe_OpacityMaskFilter_4_)">
					<polygon id="path-9" fill="#FFFFFF" points="0.308,0.428 5.736,0.428 5.736,7 0.308,7 					"/>
				</g>
			</mask>
			<path id="Fill-33" mask="url(#mask-10)" fill="#020203" d="M5.736,6.866V2.639c0-1.418-1.004-2.211-2.662-2.211
				c-1.237,0-2.047,0.514-2.265,0.643l0.64,1.148c0.137-0.073,0.733-0.434,1.586-0.434c0.746,0,1.045,0.355,1.045,0.795v0.339
				C3.932,2.858,3.537,2.665,2.795,2.665c-1.323,0-2.487,0.697-2.487,2.091C0.308,6.28,1.472,7,2.596,7
				C3.488,7,3.953,6.559,4.08,6.444v0.422H5.736z M4.08,5.018C3.9,5.319,3.465,5.592,2.924,5.592c-0.709,0-0.959-0.395-0.959-0.837
				c0-0.507,0.344-0.793,0.986-0.793c0.646,0,1.037,0.218,1.129,0.261V5.018z"/>
		</g>
		<path id="Fill-36" fill="#020203" d="M71.703,32.217v-3.59c0-1.008-0.527-1.283-1.07-1.283c-0.516,0-1.08,0.304-1.08,1.25v3.623
			h-1.659v-6.301h1.659v0.418c0.135-0.119,0.604-0.555,1.518-0.555c1.319,0,2.289,0.705,2.289,2.432v4.006H71.703z"/>
		<path id="Fill-38" fill="#020203" d="M88.412,32.217v-3.52c0-1.001-0.365-1.354-1.011-1.354c-0.544,0-1.019,0.33-1.019,1.319
			v3.554h-1.659v-3.52c0-0.982-0.375-1.354-1.003-1.354c-0.585,0-1.025,0.338-1.025,1.319v3.554h-1.656v-6.301h1.656v0.418
			c0.118-0.104,0.631-0.555,1.506-0.555c1.058,0,1.519,0.682,1.615,0.809c0.109-0.094,0.789-0.809,1.96-0.809
			c1.326,0,2.294,0.793,2.294,2.482v3.955H88.412z"/>
		<path id="Fill-40" fill="#020203" d="M96.52,29.07c0-1.935-1.01-3.287-2.69-3.291c-1.599,0-2.81,1.363-2.81,3.291
			c0,1.998,1.151,3.281,2.967,3.281c0.838,0,1.752-0.373,2.255-1.021l-0.984-0.935c-0.089,0.092-0.487,0.547-1.258,0.547
			c-0.683,0-1.251-0.478-1.313-1.344h3.811C96.506,29.482,96.52,29.312,96.52,29.07 M94.874,28.352h-2.162
			c0.031-0.5,0.329-1.127,1.069-1.127C94.525,27.225,94.824,27.791,94.874,28.352"/>
	</g>
</g>
</svg>
