<?xml version="1.0" encoding="utf-8"?>
<!-- Generator: Adobe Illustrator 16.0.0, SVG Export Plug-In . SVG Version: 6.00 Build 0)  -->
<!DOCTYPE svg PUBLIC "-//W3C//DTD SVG 1.1//EN" "http://www.w3.org/Graphics/SVG/1.1/DTD/svg11.dtd">
<svg version="1.1" id="Capa_1" xmlns="http://www.w3.org/2000/svg" xmlns:xlink="http://www.w3.org/1999/xlink" x="0px" y="0px"
	 width="145.333px" height="31.167px" viewBox="0 0 145.333 31.167" enable-background="new 0 0 145.333 31.167"
	 xml:space="preserve">
<g>
	<defs>
		<rect id="SVGID_1_" x="59.667" y="0.908" width="26" height="28"/>
	</defs>
	<clipPath id="SVGID_2_">
		<use xlink:href="#SVGID_1_"  overflow="visible"/>
	</clipPath>
	<g clip-path="url(#SVGID_2_)">
		<defs>
			<rect id="SVGID_3_" x="-37.333" y="-400.092" width="320" height="1024"/>
		</defs>
		<clipPath id="SVGID_4_">
			<use xlink:href="#SVGID_3_"  overflow="visible"/>
		</clipPath>
		<rect x="54.667" y="-4.092" clip-path="url(#SVGID_4_)" fill="#006546" width="36" height="38"/>
	</g>
</g>
<g>
	<defs>
		<path id="SVGID_5_" d="M75.834,26.156v1.049h-6.212v-1.051h-4.701c-0.46,0-0.833-0.498-0.833-1.113L62.124,4.354
			c0-0.616,0.457-1.115,1.022-1.115h18.993c0.566,0,1.023,0.499,1.023,1.115l-1.943,20.687c0,0.615-0.373,1.113-0.834,1.113
			L75.834,26.156z"/>
	</defs>
	<clipPath id="SVGID_6_">
		<use xlink:href="#SVGID_5_"  overflow="visible"/>
	</clipPath>
	<g clip-path="url(#SVGID_6_)">
		<defs>
			<rect id="SVGID_7_" x="-37.333" y="-400.092" width="320" height="1024"/>
		</defs>
		<clipPath id="SVGID_8_">
			<use xlink:href="#SVGID_7_"  overflow="visible"/>
		</clipPath>
		<rect x="57.124" y="-1.761" clip-path="url(#SVGID_8_)" fill="#FFFFFF" width="31.039" height="33.966"/>
	</g>
</g>
<g>
	<defs>
		<path id="SVGID_9_" d="M65.579,6.267h12.719c-1.252,0.488-5.064,3.172-6.018,4.977h-6.687L65.579,6.267z"/>
	</defs>
	<clipPath id="SVGID_10_">
		<use xlink:href="#SVGID_9_"  overflow="visible"/>
	</clipPath>
	<g clip-path="url(#SVGID_10_)">
		<defs>
			<rect id="SVGID_11_" x="-37.333" y="-400.092" width="320" height="1024"/>
		</defs>
		<clipPath id="SVGID_12_">
			<use xlink:href="#SVGID_11_"  overflow="visible"/>
		</clipPath>
		<rect x="60.579" y="1.267" clip-path="url(#SVGID_12_)" fill="#FF6600" width="22.719" height="14.977"/>
	</g>
</g>
<g>
	<defs>
		<path id="SVGID_13_" d="M75.715,20.526c-0.182,1.802-0.188,3.995-0.188,6.3h-5.514c0-2.305,0.091-4.498,0.271-6.3H75.715z"/>
	</defs>
	<clipPath id="SVGID_14_">
		<use xlink:href="#SVGID_13_"  overflow="visible"/>
	</clipPath>
	<g clip-path="url(#SVGID_14_)">
		<defs>
			<rect id="SVGID_15_" x="-37.333" y="-400.092" width="320" height="1024"/>
		</defs>
		<clipPath id="SVGID_16_">
			<use xlink:href="#SVGID_15_"  overflow="visible"/>
		</clipPath>
		<rect x="65.014" y="15.526" clip-path="url(#SVGID_16_)" fill="#FE000C" width="15.701" height="16.3"/>
	</g>
</g>
<g>
	<defs>
		<polygon id="SVGID_17_" points="65.174,16.394 67.188,16.394 67.188,17.223 66.307,17.223 66.307,17.921 67.188,17.921 
			67.188,18.621 66.307,18.621 66.307,19.319 67.188,19.319 67.188,20.119 65.174,20.119 		"/>
	</defs>
	<clipPath id="SVGID_18_">
		<use xlink:href="#SVGID_17_"  overflow="visible"/>
	</clipPath>
	<g clip-path="url(#SVGID_18_)">
		<defs>
			<rect id="SVGID_19_" x="-37.333" y="-400.092" width="320" height="1024"/>
		</defs>
		<clipPath id="SVGID_20_">
			<use xlink:href="#SVGID_19_"  overflow="visible"/>
		</clipPath>
		<rect x="60.174" y="11.394" clip-path="url(#SVGID_20_)" fill="#006546" width="12.014" height="13.725"/>
	</g>
</g>
<g>
	<defs>
		<polygon id="SVGID_21_" points="69.861,16.394 71.875,16.394 71.875,17.223 70.994,17.223 70.994,17.921 71.875,17.921 
			71.875,18.621 70.994,18.621 70.994,19.319 71.875,19.319 71.875,20.119 69.861,20.119 		"/>
	</defs>
	<clipPath id="SVGID_22_">
		<use xlink:href="#SVGID_21_"  overflow="visible"/>
	</clipPath>
	<g clip-path="url(#SVGID_22_)">
		<defs>
			<rect id="SVGID_23_" x="-37.333" y="-400.092" width="320" height="1024"/>
		</defs>
		<clipPath id="SVGID_24_">
			<use xlink:href="#SVGID_23_"  overflow="visible"/>
		</clipPath>
		<rect x="64.861" y="11.394" clip-path="url(#SVGID_24_)" fill="#006546" width="12.015" height="13.725"/>
	</g>
</g>
<g>
	<defs>
		<polygon id="SVGID_25_" points="75.024,16.394 77.038,16.394 77.038,17.223 76.157,17.223 76.157,17.921 77.038,17.921 
			77.038,18.621 76.157,18.621 76.157,19.319 77.038,19.319 77.038,20.119 75.024,20.119 		"/>
	</defs>
	<clipPath id="SVGID_26_">
		<use xlink:href="#SVGID_25_"  overflow="visible"/>
	</clipPath>
	<g clip-path="url(#SVGID_26_)">
		<defs>
			<rect id="SVGID_27_" x="-37.333" y="-400.092" width="320" height="1024"/>
		</defs>
		<clipPath id="SVGID_28_">
			<use xlink:href="#SVGID_27_"  overflow="visible"/>
		</clipPath>
		<rect x="70.024" y="11.394" clip-path="url(#SVGID_28_)" fill="#006546" width="12.014" height="13.725"/>
	</g>
</g>
<g>
	<defs>
		<polygon id="SVGID_29_" points="68.7,19.319 69.581,19.319 69.581,20.119 67.567,20.119 67.567,16.394 68.7,16.394 		"/>
	</defs>
	<clipPath id="SVGID_30_">
		<use xlink:href="#SVGID_29_"  overflow="visible"/>
	</clipPath>
	<g clip-path="url(#SVGID_30_)">
		<defs>
			<rect id="SVGID_31_" x="-37.333" y="-400.092" width="320" height="1024"/>
		</defs>
		<clipPath id="SVGID_32_">
			<use xlink:href="#SVGID_31_"  overflow="visible"/>
		</clipPath>
		<rect x="62.567" y="11.394" clip-path="url(#SVGID_32_)" fill="#006546" width="12.014" height="13.725"/>
	</g>
</g>
<g>
	<defs>
		<polygon id="SVGID_33_" points="72.081,16.394 72.643,20.119 74.1,20.119 74.782,16.394 73.94,16.394 73.499,18.911 
			73.071,16.394 		"/>
	</defs>
	<clipPath id="SVGID_34_">
		<use xlink:href="#SVGID_33_"  overflow="visible"/>
	</clipPath>
	<g clip-path="url(#SVGID_34_)">
		<defs>
			<rect id="SVGID_35_" x="-37.333" y="-400.092" width="320" height="1024"/>
		</defs>
		<clipPath id="SVGID_36_">
			<use xlink:href="#SVGID_35_"  overflow="visible"/>
		</clipPath>
		<rect x="67.081" y="11.394" clip-path="url(#SVGID_36_)" fill="#006546" width="12.701" height="13.725"/>
	</g>
</g>
<g>
	<defs>
		<rect id="SVGID_37_" x="59.667" y="0.955" width="25.896" height="27.953"/>
	</defs>
	<clipPath id="SVGID_38_">
		<use xlink:href="#SVGID_37_"  overflow="visible"/>
	</clipPath>
	<g clip-path="url(#SVGID_38_)">
		<defs>
			<rect id="SVGID_39_" x="-37.333" y="-400.092" width="320" height="1024"/>
		</defs>
		<clipPath id="SVGID_40_">
			<use xlink:href="#SVGID_39_"  overflow="visible"/>
		</clipPath>
		<g clip-path="url(#SVGID_40_)" enable-background="new    ">
			<g>
				<defs>
					<rect id="SVGID_41_" x="70.667" y="5.908" width="10" height="17"/>
				</defs>
				<clipPath id="SVGID_42_">
					<use xlink:href="#SVGID_41_"  overflow="visible"/>
				</clipPath>
				<g clip-path="url(#SVGID_42_)">
					<defs>
						<rect id="SVGID_43_" x="77.514" y="16.394" width="1.09" height="3.725"/>
					</defs>
					<clipPath id="SVGID_44_">
						<use xlink:href="#SVGID_43_"  overflow="visible"/>
					</clipPath>
					<g clip-path="url(#SVGID_44_)">
						<defs>
							<rect id="SVGID_45_" x="59.667" y="0.908" width="26" height="28"/>
						</defs>
						<clipPath id="SVGID_46_">
							<use xlink:href="#SVGID_45_"  overflow="visible"/>
						</clipPath>
						<rect x="72.514" y="11.394" clip-path="url(#SVGID_46_)" fill="#006546" width="11.09" height="13.725"/>
					</g>
				</g>
				<g clip-path="url(#SVGID_42_)">
					<defs>
						<path id="SVGID_47_" d="M78.604,17.5c0.057-0.408,0.617-0.299,0.617-0.066v2.685h1.09v-3.157c0-0.669-0.908-0.938-1.699-0.35"
							/>
					</defs>
					<clipPath id="SVGID_48_">
						<use xlink:href="#SVGID_47_"  overflow="visible"/>
					</clipPath>
					<g clip-path="url(#SVGID_48_)">
						<defs>
							<rect id="SVGID_49_" x="59.667" y="0.908" width="26" height="28"/>
						</defs>
						<clipPath id="SVGID_50_">
							<use xlink:href="#SVGID_49_"  overflow="visible"/>
						</clipPath>
						<rect x="73.604" y="11.288" clip-path="url(#SVGID_50_)" fill="#006546" width="11.707" height="13.831"/>
					</g>
				</g>
				<g clip-path="url(#SVGID_42_)">
					<defs>
						<path id="SVGID_51_" d="M76.227,15.871c0.111-1.427,1.986-3.754,3.805-4.365v-5.5c-5.002,2.328-8.254,5.849-8.959,9.851
							L76.227,15.871z"/>
					</defs>
					<clipPath id="SVGID_52_">
						<use xlink:href="#SVGID_51_"  overflow="visible"/>
					</clipPath>
					<g clip-path="url(#SVGID_52_)">
						<defs>
							<rect id="SVGID_53_" x="59.667" y="0.908" width="26" height="28"/>
						</defs>
						<clipPath id="SVGID_54_">
							<use xlink:href="#SVGID_53_"  overflow="visible"/>
						</clipPath>
						<rect x="66.073" y="1.005" clip-path="url(#SVGID_54_)" fill="#FE000C" width="18.959" height="19.865"/>
					</g>
				</g>
				<g clip-path="url(#SVGID_42_)">
					<defs>
						<path id="SVGID_55_" d="M77.676,22.11c-0.141,0.146-0.311,0.221-0.512,0.221c-0.199,0-0.371-0.074-0.512-0.221
							c-0.139-0.146-0.209-0.325-0.209-0.533c0-0.206,0.07-0.384,0.213-0.53c0.139-0.146,0.309-0.219,0.508-0.219
							c0.201,0,0.371,0.073,0.512,0.219c0.143,0.146,0.213,0.322,0.213,0.53S77.819,21.962,77.676,22.11z M76.725,21.121
							c-0.121,0.126-0.182,0.278-0.182,0.457c0,0.18,0.059,0.333,0.182,0.46c0.119,0.127,0.268,0.189,0.439,0.189
							c0.174,0,0.32-0.062,0.441-0.189s0.182-0.28,0.182-0.46c0-0.179-0.061-0.331-0.182-0.457c-0.121-0.127-0.27-0.19-0.441-0.19
							S76.846,20.994,76.725,21.121z M77.153,21.162c0.098,0,0.17,0.01,0.217,0.029c0.082,0.035,0.123,0.105,0.123,0.209
							c0,0.074-0.025,0.129-0.078,0.163c-0.025,0.019-0.064,0.032-0.113,0.04c0.061,0.01,0.105,0.037,0.135,0.081
							c0.027,0.043,0.043,0.086,0.043,0.128v0.061c0,0.019,0,0.039,0.002,0.061c0,0.022,0.004,0.037,0.006,0.043l0.006,0.011h-0.131
							c0-0.003-0.002-0.006-0.002-0.008c0-0.003,0-0.007-0.002-0.01l-0.002-0.026v-0.065c0-0.095-0.025-0.158-0.076-0.188
							c-0.029-0.018-0.082-0.026-0.156-0.026h-0.111v0.324h-0.139v-0.825H77.153z M77.305,21.294c-0.037-0.02-0.094-0.03-0.172-0.03
							h-0.121v0.295h0.129c0.059,0,0.104-0.006,0.135-0.018c0.055-0.022,0.082-0.064,0.082-0.128
							C77.358,21.355,77.34,21.315,77.305,21.294z"/>
					</defs>
					<clipPath id="SVGID_56_">
						<use xlink:href="#SVGID_55_"  overflow="visible"/>
					</clipPath>
					<g clip-path="url(#SVGID_56_)">
						<defs>
							<rect id="SVGID_57_" x="59.667" y="0.908" width="26" height="28"/>
						</defs>
						<clipPath id="SVGID_58_">
							<use xlink:href="#SVGID_57_"  overflow="visible"/>
						</clipPath>
						<rect x="71.444" y="15.828" clip-path="url(#SVGID_58_)" fill="#006546" width="11.445" height="11.502"/>
					</g>
				</g>
			</g>
		</g>
	</g>
</g>
</svg>
