<?xml version="1.0" encoding="utf-8"?>
<!-- Generator: Adobe Illustrator 16.0.0, SVG Export Plug-In . SVG Version: 6.00 Build 0)  -->
<!DOCTYPE svg PUBLIC "-//W3C//DTD SVG 1.1//EN" "http://www.w3.org/Graphics/SVG/1.1/DTD/svg11.dtd">
<svg version="1.1" id="Capa_1" xmlns="http://www.w3.org/2000/svg" xmlns:xlink="http://www.w3.org/1999/xlink" x="0px" y="0px"
	 width="216.524px" height="50px" viewBox="0 0 216.524 50" enable-background="new 0 0 216.524 50" xml:space="preserve">
<g>
	<g>
		<g>
			<g>
				<path fill="#009BDE" d="M132.191,16.146h-6.576c-0.449,0-0.828,0.325-0.9,0.77l-2.656,16.852
					c-0.053,0.332,0.203,0.635,0.541,0.635h3.371c0.314,0,0.584-0.232,0.633-0.54l0.754-4.778c0.068-0.445,0.451-0.771,0.902-0.771
					h2.076c4.33,0,6.828-2.095,7.482-6.248c0.291-1.817,0.012-3.243-0.84-4.241C136.043,16.728,134.389,16.146,132.191,16.146z
					 M132.947,22.299c-0.359,2.36-2.16,2.36-3.904,2.36h-0.99l0.695-4.406c0.041-0.265,0.273-0.46,0.541-0.46h0.455
					c1.188,0,2.305,0,2.883,0.675C132.975,20.871,133.078,21.473,132.947,22.299z"/>
				<path fill="#002F87" d="M85.315,16.146h-6.573c-0.451,0-0.832,0.325-0.9,0.77l-2.659,16.852
					c-0.054,0.332,0.204,0.635,0.541,0.635h3.138c0.449,0,0.832-0.329,0.903-0.774l0.716-4.544c0.071-0.445,0.453-0.771,0.902-0.771
					h2.08c4.328,0,6.828-2.095,7.479-6.248c0.296-1.817,0.013-3.243-0.836-4.241C89.17,16.728,87.512,16.146,85.315,16.146z
					 M86.074,22.299c-0.36,2.36-2.162,2.36-3.905,2.36h-0.992l0.696-4.406c0.042-0.265,0.271-0.46,0.542-0.46h0.454
					c1.187,0,2.307,0,2.885,0.675C86.099,20.871,86.203,21.473,86.074,22.299z"/>
				<path fill="#002F87" d="M104.959,22.225h-3.148c-0.268,0-0.498,0.195-0.541,0.461l-0.137,0.879l-0.221-0.319
					c-0.684-0.987-2.203-1.318-3.719-1.318c-3.476,0-6.446,2.634-7.023,6.332c-0.302,1.84,0.125,3.603,1.17,4.834
					c0.96,1.128,2.331,1.6,3.964,1.6c2.802,0,4.356-1.802,4.356-1.802l-0.141,0.875c-0.053,0.332,0.205,0.635,0.541,0.635h2.834
					c0.451,0,0.834-0.329,0.904-0.771l1.701-10.774C105.551,22.526,105.295,22.225,104.959,22.225z M100.572,28.349
					c-0.305,1.8-1.732,3.005-3.554,3.005c-0.911,0-1.643-0.294-2.112-0.851c-0.465-0.549-0.64-1.334-0.493-2.208
					c0.284-1.782,1.734-3.027,3.526-3.027c0.895,0,1.62,0.295,2.098,0.856C100.52,26.688,100.709,27.48,100.572,28.349z"/>
				<path fill="#009BDE" d="M151.83,22.225h-3.146c-0.268,0-0.496,0.195-0.541,0.461l-0.137,0.879l-0.223-0.319
					c-0.68-0.987-2.197-1.318-3.715-1.318c-3.475,0-6.447,2.634-7.023,6.332c-0.303,1.84,0.123,3.603,1.172,4.834
					c0.959,1.128,2.332,1.6,3.963,1.6c2.801,0,4.357-1.802,4.357-1.802l-0.141,0.875c-0.057,0.332,0.205,0.635,0.539,0.635h2.836
					c0.449,0,0.83-0.329,0.902-0.771l1.699-10.774C152.426,22.526,152.168,22.225,151.83,22.225z M147.447,28.349
					c-0.305,1.8-1.73,3.005-3.551,3.005c-0.916,0-1.645-0.294-2.115-0.851c-0.465-0.549-0.639-1.334-0.494-2.208
					c0.285-1.782,1.734-3.027,3.529-3.027c0.893,0,1.617,0.295,2.096,0.856C147.395,26.688,147.586,27.48,147.447,28.349z"/>
				<path fill="#002F87" d="M121.719,22.225h-3.162c-0.303,0-0.588,0.151-0.756,0.399l-4.363,6.426l-1.85-6.174
					c-0.113-0.387-0.471-0.651-0.875-0.651h-3.109c-0.373,0-0.639,0.37-0.518,0.726l3.482,10.223l-3.275,4.621
					c-0.258,0.366,0,0.866,0.445,0.866h3.16c0.301,0,0.582-0.148,0.752-0.392l10.52-15.182
					C122.42,22.722,122.162,22.225,121.719,22.225z"/>
				<path fill="#009BDE" d="M155.541,16.607l-2.697,17.16c-0.053,0.332,0.205,0.635,0.541,0.635h2.713
					c0.451,0,0.832-0.329,0.902-0.771l2.658-16.854c0.055-0.333-0.203-0.633-0.541-0.633h-3.037
					C155.812,16.146,155.584,16.341,155.541,16.607z"/>
			</g>
		</g>
	</g>
</g>
<g>
	<path fill="#009BDE" d="M62.292,17.029c0.352-2.255-0.004-3.793-1.225-5.184c-1.342-1.528-3.77-2.184-6.875-2.184h-9.013
		c-0.633,0-1.173,0.46-1.272,1.089l-3.755,23.796c-0.073,0.471,0.29,0.897,0.764,0.897h5.565l-0.384,2.435
		c-0.065,0.411,0.253,0.781,0.669,0.781h4.689c0.554,0,1.027-0.404,1.114-0.954l0.046-0.238l0.884-5.603l0.057-0.31
		c0.087-0.545,0.559-0.95,1.114-0.95h0.701c4.543,0,8.102-1.847,9.141-7.184c0.434-2.233,0.21-4.095-0.938-5.405
		C63.226,17.623,62.795,17.295,62.292,17.029L62.292,17.029"/>
	<path fill="#022169" d="M62.292,17.029c0.352-2.255-0.004-3.793-1.225-5.184c-1.342-1.528-3.77-2.184-6.875-2.184h-9.013
		c-0.633,0-1.173,0.46-1.272,1.089l-3.755,23.796c-0.073,0.471,0.29,0.897,0.764,0.897h5.565l1.397-8.864l-0.043,0.277
		c0.1-0.625,0.635-1.087,1.271-1.087h2.643c5.194,0,9.261-2.109,10.449-8.212C62.233,17.376,62.264,17.199,62.292,17.029"/>
	<path fill="#002F87" d="M49.381,17.057c0.059-0.375,0.301-0.685,0.626-0.842c0.15-0.07,0.315-0.109,0.487-0.109h7.066
		c0.837,0,1.618,0.055,2.332,0.169c0.204,0.034,0.401,0.072,0.594,0.114c0.192,0.042,0.38,0.09,0.562,0.143
		c0.089,0.026,0.179,0.053,0.266,0.083c0.352,0.117,0.676,0.254,0.978,0.414c0.352-2.255-0.004-3.793-1.225-5.184
		c-1.342-1.528-3.77-2.184-6.875-2.184h-9.013c-0.633,0-1.173,0.46-1.272,1.089l-3.755,23.796c-0.073,0.471,0.29,0.897,0.764,0.897
		h5.565l1.397-8.864L49.381,17.057z"/>
</g>
</svg>
