<?xml version="1.0" encoding="utf-8"?>
<!-- Generator: Adobe Illustrator 16.0.0, SVG Export Plug-In . SVG Version: 6.00 Build 0)  -->
<!DOCTYPE svg PUBLIC "-//W3C//DTD SVG 1.1//EN" "http://www.w3.org/Graphics/SVG/1.1/DTD/svg11.dtd">
<svg version="1.1" id="Capa_1" xmlns="http://www.w3.org/2000/svg" xmlns:xlink="http://www.w3.org/1999/xlink" x="0px" y="0px"
	 width="117.167px" height="31.167px" viewBox="0 0 117.167 31.167" enable-background="new 0 0 117.167 31.167"
	 xml:space="preserve">
<g>
	<path fill="#1B2948" d="M15.183,9.035c-1.797,0-3.361,0.637-4.637,1.912c-1.274,1.274-1.912,2.84-1.912,4.635
		c0,1.855,0.638,3.362,1.912,4.638c1.274,1.334,2.84,1.971,4.637,1.971c1.796,0,3.36-0.637,4.636-1.971
		c1.275-1.274,1.912-2.781,1.912-4.638c0-1.795-0.637-3.359-1.912-4.635S16.979,9.035,15.183,9.035L15.183,9.035z"/>
	<path fill="#1B2948" d="M15.183,7.875V0.4c-2.665,0-5.157,0.695-7.476,1.971v11.357c0.405-1.682,1.333-3.07,2.665-4.113
		C11.821,8.455,13.386,7.875,15.183,7.875L15.183,7.875z"/>
	<path fill="#1B2948" d="M13.56,23.231c-1.738-0.405-3.129-1.332-4.173-2.724c-1.158-1.391-1.68-2.954-1.68-4.752H0
		c0,2.666,0.693,5.158,2.027,7.476H13.56L13.56,23.231z"/>
	<path fill="#1B2948" d="M22.716,17.554c-0.405,1.681-1.274,3.07-2.665,4.172s-3.014,1.682-4.811,1.682v7.359
		c2.665,0,5.157-0.639,7.476-1.971V17.554L22.716,17.554z"/>
	<path fill="#1B2948" d="M30.365,15.525c0-2.666-0.695-5.158-2.028-7.477H17.095c1.738,0.406,3.13,1.332,4.173,2.666
		c1.158,1.447,1.68,3.014,1.68,4.811H30.365L30.365,15.525z"/>
	<polygon fill="#1B2948" points="33.843,8.455 33.843,17.264 36.508,17.264 36.508,8.455 	"/>
	<polygon fill="#1B2948" points="50.475,8.455 47.751,8.455 47.751,14.83 47.751,14.83 42.593,8.455 38.42,8.455 38.42,17.264 
		41.145,17.264 41.145,10.832 41.145,10.832 46.244,17.264 50.475,17.264 	"/>
	<path fill="#1B2948" d="M54.938,11.932v-1.392h4.809c0.521,0,0.812,0.232,0.812,0.696s-0.291,0.694-0.812,0.694L54.938,11.932
		L54.938,11.932z M54.938,13.728h4.867c0.637,0,0.984,0.29,0.984,0.753s-0.348,0.638-0.984,0.638h-4.867V13.728L54.938,13.728z
		 M61.949,12.802v-0.059c0.463-0.117,0.752-0.289,0.928-0.521c0.289-0.29,0.404-0.811,0.404-1.508c0-0.812-0.291-1.391-0.812-1.797
		c-0.52-0.346-1.332-0.463-2.432-0.463h-7.824v8.81h8.693c0.869,0,1.506-0.116,1.91-0.405c0.465-0.406,0.754-1.043,0.754-1.914
		c0-0.693-0.117-1.216-0.348-1.505C62.934,13.091,62.527,12.859,61.949,12.802L61.949,12.802z"/>
	<path fill="#1B2948" d="M76.262,8.455h-2.666v5.1c0,0.521-0.176,0.928-0.35,1.158c-0.231,0.291-0.695,0.406-1.217,0.406h-2.666
		c-0.579,0-0.926-0.115-1.215-0.406c-0.233-0.23-0.291-0.637-0.291-1.158v-5.1h-2.725v5.68c0,1.101,0.291,1.912,0.871,2.435
		c0.578,0.579,1.506,0.812,2.723,0.812h3.939c1.219,0,2.147-0.231,2.725-0.812c0.58-0.521,0.869-1.334,0.869-2.435v-5.68H76.262z"/>
	<path fill="#1B2948" d="M80.723,12.744v-2.145c1.432,0,2.857,0,4.289,0c0.727,0,1.219,0.123,1.219,0.927c0,0.099,0,0.192,0,0.29
		c0,0.639-0.352,0.928-0.988,0.928H80.723L80.723,12.744z M80.723,15.003h4.289c0.404,0,0.693,0.06,0.867,0.23
		c0.176,0.176,0.232,0.521,0.232,0.985v1.044h2.723v-1.508c0-0.637-0.113-1.158-0.402-1.448c-0.232-0.231-0.58-0.404-1.043-0.521
		c0.576-0.117,0.982-0.406,1.217-0.754c0.174-0.348,0.289-0.812,0.289-1.449v-0.521c0-0.869-0.174-1.506-0.521-1.911
		c-0.463-0.521-1.158-0.695-2.143-0.695H78v8.809h2.723V15.003L80.723,15.003z"/>
	<path fill="#1B2948" d="M96.428,11.757l-2.725-0.114c-0.174,0-0.348-0.116-0.406-0.231c-0.057-0.059-0.115-0.231-0.115-0.406
		c0-0.463,0.35-0.693,1.045-0.693h3.014c0.58,0,0.984,0.057,1.158,0.174c0.117,0.115,0.174,0.348,0.174,0.754h2.725v-0.291
		c0-0.927-0.174-1.564-0.58-1.912c-0.463-0.521-1.449-0.754-2.84-0.754h-3.824c-1.564,0-2.607,0.291-3.07,0.811
		c-0.35,0.406-0.523,1.103-0.523,2.029c0,0.637,0.061,1.043,0.174,1.391c0.061,0.349,0.291,0.58,0.58,0.812
		c0.58,0.348,1.799,0.521,3.826,0.521l3.244,0.116c0.232,0,0.404,0.115,0.465,0.231l0.113,0.464c0,0.288-0.113,0.521-0.346,0.637
		l-0.812,0.117h-3.359l-0.869-0.176c-0.176-0.115-0.291-0.404-0.291-0.867h-2.725v0.637c0,0.928,0.291,1.564,0.812,1.912
		c0.463,0.291,1.391,0.463,2.664,0.463h3.305c1.797,0,3.014-0.172,3.533-0.521c0.35-0.175,0.582-0.464,0.697-0.812
		s0.174-0.87,0.174-1.449c0-0.693-0.059-1.158-0.232-1.508c-0.115-0.404-0.404-0.694-0.754-0.868
		C100.022,11.875,98.631,11.757,96.428,11.757L96.428,11.757z"/>
	<polygon fill="#1B2948" points="110.686,8.455 107.149,8.455 102.34,17.264 105.411,17.264 106.167,15.699 107.208,13.787 
		108.946,10.484 110.686,13.787 107.208,13.787 106.167,15.699 111.729,15.699 112.54,17.264 115.553,17.264 	"/>
	<path fill="#1B2948" d="M56.062,24.21v-0.688l2.498-0.005v2.188c-0.385,0.305-0.778,0.535-1.187,0.689
		c-0.407,0.152-0.825,0.23-1.254,0.23c-0.579,0-1.106-0.123-1.578-0.371c-0.474-0.248-0.83-0.607-1.071-1.075
		c-0.242-0.47-0.363-0.994-0.363-1.572c0-0.575,0.121-1.108,0.361-1.604c0.238-0.498,0.584-0.869,1.034-1.108
		c0.45-0.241,0.97-0.36,1.558-0.36c0.424,0,0.811,0.067,1.154,0.207c0.346,0.137,0.616,0.328,0.811,0.574
		c0.195,0.247,0.345,0.568,0.445,0.966l-0.703,0.193c-0.09-0.302-0.199-0.537-0.33-0.708c-0.131-0.172-0.318-0.311-0.563-0.412
		c-0.242-0.104-0.515-0.154-0.812-0.154c-0.355,0-0.666,0.055-0.924,0.163c-0.262,0.106-0.471,0.251-0.631,0.429
		c-0.158,0.176-0.281,0.369-0.371,0.584c-0.15,0.361-0.227,0.756-0.227,1.184c0,0.527,0.091,0.966,0.271,1.318
		c0.182,0.354,0.444,0.617,0.791,0.789c0.346,0.172,0.713,0.258,1.1,0.258c0.341,0,0.67-0.065,0.99-0.196
		c0.322-0.129,0.564-0.269,0.731-0.415v-1.1h-1.731V24.21z"/>
	<path fill="#1B2948" d="M59.609,26.523v-4.27h0.649v0.646c0.166-0.302,0.32-0.502,0.462-0.599c0.139-0.096,0.295-0.145,0.465-0.145
		c0.241,0,0.489,0.077,0.741,0.232l-0.247,0.673c-0.177-0.104-0.354-0.159-0.531-0.159c-0.158,0-0.299,0.049-0.426,0.145
		s-0.216,0.228-0.271,0.396c-0.082,0.257-0.121,0.538-0.121,0.845v2.234h-0.722V26.523z"/>
	<path fill="#1B2948" d="M65.158,26.523v-0.626c-0.334,0.481-0.787,0.722-1.355,0.722c-0.254,0-0.488-0.047-0.707-0.144
		c-0.217-0.097-0.381-0.22-0.486-0.362c-0.106-0.146-0.18-0.326-0.223-0.537c-0.029-0.144-0.045-0.369-0.045-0.678v-2.645h0.725
		v2.367c0,0.379,0.017,0.633,0.043,0.764c0.048,0.191,0.144,0.34,0.291,0.449c0.148,0.109,0.33,0.162,0.547,0.162
		c0.218,0,0.421-0.056,0.609-0.168c0.191-0.108,0.326-0.263,0.404-0.451c0.08-0.192,0.119-0.471,0.119-0.836v-2.287h0.725v4.27
		H65.158L65.158,26.523z"/>
	<path fill="#1B2948" d="M66.939,28.16v-5.906h0.658v0.556c0.153-0.218,0.329-0.379,0.526-0.488
		c0.192-0.108,0.433-0.163,0.709-0.163c0.364,0,0.688,0.096,0.967,0.28c0.279,0.188,0.49,0.453,0.632,0.795
		c0.143,0.341,0.213,0.718,0.213,1.124c0,0.438-0.078,0.831-0.236,1.182c-0.154,0.35-0.383,0.617-0.684,0.805
		c-0.3,0.186-0.611,0.277-0.941,0.277c-0.242,0-0.457-0.05-0.648-0.151c-0.191-0.103-0.35-0.229-0.473-0.388v2.078H66.939
		L66.939,28.16z M67.592,24.414c0,0.549,0.113,0.955,0.334,1.219c0.223,0.263,0.494,0.393,0.809,0.393
		c0.322,0,0.599-0.135,0.826-0.408c0.23-0.271,0.347-0.691,0.347-1.263c0-0.546-0.113-0.951-0.337-1.226
		c-0.225-0.269-0.491-0.404-0.803-0.404c-0.307,0-0.58,0.145-0.817,0.434C67.711,23.444,67.592,23.863,67.592,24.414L67.592,24.414z
		"/>
	<path fill="#1B2948" d="M71.248,24.388c0-0.789,0.221-1.375,0.66-1.758c0.365-0.313,0.812-0.473,1.342-0.473
		c0.586,0,1.066,0.19,1.439,0.576c0.373,0.387,0.559,0.916,0.559,1.594c0,0.551-0.082,0.982-0.248,1.297
		c-0.164,0.315-0.402,0.561-0.719,0.735c-0.314,0.173-0.658,0.259-1.031,0.259c-0.598,0-1.081-0.188-1.45-0.574
		C71.434,25.662,71.248,25.109,71.248,24.388L71.248,24.388z M71.992,24.388c0,0.549,0.117,0.957,0.357,1.229
		c0.239,0.273,0.539,0.408,0.899,0.408c0.359,0,0.658-0.136,0.896-0.408c0.238-0.273,0.359-0.691,0.359-1.25
		c0-0.529-0.121-0.93-0.361-1.201s-0.539-0.408-0.895-0.408c-0.362,0-0.661,0.137-0.901,0.406
		C72.107,23.434,71.992,23.843,71.992,24.388L71.992,24.388z"/>
	<polygon fill="#1B2948" points="78.516,26.523 78.516,20.63 82.497,20.63 82.497,21.326 79.299,21.326 79.299,23.151 
		82.063,23.151 82.063,23.846 79.299,23.846 79.299,26.523 	"/>
	<path fill="#1B2948" d="M83.418,21.462V20.63h0.725v0.832H83.418L83.418,21.462z M83.418,26.523v-4.27h0.725v4.27H83.418
		L83.418,26.523z"/>
	<path fill="#1B2948" d="M85.245,26.523v-4.27h0.65v0.606c0.312-0.47,0.768-0.704,1.357-0.704c0.26,0,0.492,0.047,0.709,0.139
		c0.219,0.095,0.377,0.215,0.484,0.365c0.107,0.149,0.184,0.327,0.229,0.534c0.023,0.134,0.037,0.369,0.037,0.703v2.625h-0.725
		v-2.599c0-0.293-0.027-0.514-0.082-0.66c-0.057-0.145-0.156-0.264-0.299-0.35c-0.145-0.088-0.312-0.131-0.506-0.131
		c-0.311,0-0.574,0.1-0.799,0.293c-0.225,0.196-0.336,0.565-0.336,1.114v2.331h-0.721V26.523z"/>
	<path fill="#1B2948" d="M92.61,25.996c-0.271,0.229-0.527,0.389-0.773,0.483c-0.248,0.095-0.516,0.14-0.799,0.14
		c-0.471,0-0.828-0.113-1.08-0.342c-0.252-0.23-0.377-0.521-0.377-0.879c0-0.21,0.043-0.4,0.141-0.572
		c0.094-0.174,0.219-0.313,0.375-0.416c0.154-0.105,0.326-0.186,0.52-0.238c0.143-0.037,0.355-0.073,0.643-0.106
		c0.588-0.069,1.018-0.153,1.295-0.251c0-0.1,0.002-0.161,0.002-0.188c0-0.295-0.068-0.504-0.205-0.623
		c-0.186-0.164-0.459-0.246-0.822-0.246c-0.342,0-0.592,0.061-0.756,0.179c-0.162,0.12-0.281,0.332-0.359,0.634l-0.707-0.097
		c0.064-0.302,0.17-0.546,0.316-0.733c0.146-0.186,0.359-0.33,0.641-0.431c0.277-0.101,0.6-0.149,0.969-0.149
		c0.365,0,0.66,0.043,0.887,0.127c0.229,0.088,0.396,0.193,0.504,0.324s0.182,0.295,0.225,0.493
		c0.023,0.123,0.037,0.347,0.037,0.667v0.965c0,0.674,0.016,1.102,0.047,1.275c0.029,0.179,0.092,0.352,0.184,0.514h-0.758
		C92.68,26.375,92.629,26.199,92.61,25.996L92.61,25.996z M92.551,24.38c-0.264,0.107-0.658,0.199-1.184,0.273
		c-0.297,0.043-0.508,0.092-0.631,0.145c-0.123,0.055-0.219,0.132-0.285,0.236c-0.066,0.103-0.102,0.217-0.102,0.344
		c0,0.193,0.072,0.354,0.221,0.483c0.145,0.126,0.359,0.19,0.639,0.19s0.527-0.061,0.744-0.184c0.219-0.121,0.379-0.289,0.479-0.5
		c0.08-0.164,0.119-0.404,0.119-0.724V24.38L92.551,24.38z"/>
	<path fill="#1B2948" d="M94.405,26.523v-4.27h0.65v0.606c0.311-0.47,0.766-0.704,1.355-0.704c0.258,0,0.496,0.047,0.711,0.139
		c0.217,0.095,0.377,0.215,0.484,0.365c0.107,0.149,0.182,0.327,0.227,0.534c0.023,0.134,0.039,0.369,0.039,0.703v2.625h-0.725
		v-2.599c0-0.293-0.027-0.514-0.084-0.66c-0.057-0.145-0.156-0.264-0.299-0.35c-0.145-0.088-0.312-0.131-0.506-0.131
		c-0.307,0-0.572,0.1-0.799,0.293c-0.223,0.196-0.334,0.565-0.334,1.114v2.331h-0.721V26.523z"/>
	<path fill="#1B2948" d="M101.77,24.958l0.711,0.095c-0.076,0.491-0.277,0.872-0.6,1.149c-0.318,0.278-0.715,0.416-1.18,0.416
		c-0.584,0-1.055-0.188-1.408-0.572c-0.354-0.381-0.531-0.928-0.531-1.641c0-0.463,0.074-0.865,0.229-1.211
		c0.154-0.347,0.385-0.605,0.697-0.779c0.311-0.174,0.65-0.258,1.018-0.258c0.465,0,0.846,0.117,1.139,0.354
		c0.295,0.232,0.484,0.566,0.57,0.998l-0.705,0.107c-0.066-0.287-0.186-0.502-0.355-0.647c-0.17-0.144-0.377-0.218-0.617-0.218
		c-0.367,0-0.662,0.133-0.891,0.393c-0.227,0.264-0.342,0.675-0.342,1.24c0,0.572,0.111,0.99,0.33,1.25
		c0.221,0.262,0.508,0.391,0.861,0.391c0.285,0,0.52-0.087,0.711-0.262C101.598,25.589,101.719,25.322,101.77,24.958L101.77,24.958z
		"/>
	<path fill="#1B2948" d="M103.104,21.462V20.63h0.723v0.832H103.104L103.104,21.462z M103.104,26.523v-4.27h0.723v4.27H103.104
		L103.104,26.523z"/>
	<path fill="#1B2948" d="M107.852,25.148l0.748,0.094c-0.119,0.437-0.336,0.775-0.654,1.016c-0.32,0.242-0.729,0.361-1.223,0.361
		c-0.625,0-1.121-0.19-1.486-0.574c-0.367-0.385-0.549-0.926-0.549-1.619c0-0.719,0.186-1.275,0.555-1.674
		c0.371-0.396,0.85-0.594,1.439-0.594c0.57,0,1.035,0.193,1.396,0.582c0.363,0.389,0.545,0.936,0.545,1.641
		c0,0.043-0.004,0.107-0.006,0.193h-3.182c0.023,0.471,0.158,0.827,0.396,1.076s0.535,0.374,0.893,0.374
		c0.264,0,0.492-0.069,0.68-0.209C107.594,25.677,107.741,25.455,107.852,25.148L107.852,25.148z M105.477,23.978h2.383
		c-0.031-0.357-0.125-0.628-0.273-0.807c-0.23-0.278-0.529-0.42-0.895-0.42c-0.332,0-0.613,0.111-0.84,0.334
		C105.624,23.309,105.502,23.606,105.477,23.978L105.477,23.978z"/>
	<path fill="#1B2948" d="M109.5,26.523v-4.27h0.652v0.646c0.166-0.302,0.318-0.502,0.461-0.599c0.139-0.096,0.295-0.145,0.463-0.145
		c0.244,0,0.49,0.077,0.744,0.232l-0.25,0.673c-0.176-0.104-0.355-0.159-0.529-0.159c-0.158,0-0.301,0.049-0.426,0.145
		c-0.129,0.096-0.217,0.228-0.27,0.396c-0.082,0.257-0.121,0.538-0.121,0.845v2.234H109.5V26.523z"/>
	<path fill="#1B2948" d="M111.981,24.388c0-0.789,0.221-1.375,0.66-1.758c0.365-0.313,0.812-0.473,1.342-0.473
		c0.588,0,1.066,0.19,1.438,0.576c0.373,0.387,0.562,0.916,0.562,1.594c0,0.551-0.082,0.982-0.248,1.297
		c-0.164,0.315-0.404,0.561-0.721,0.735c-0.314,0.173-0.658,0.259-1.031,0.259c-0.596,0-1.078-0.188-1.449-0.574
		C112.167,25.662,111.981,25.109,111.981,24.388L111.981,24.388z M112.725,24.388c0,0.549,0.117,0.957,0.355,1.229
		c0.24,0.273,0.541,0.408,0.9,0.408s0.658-0.136,0.896-0.408c0.238-0.273,0.357-0.691,0.357-1.25c0-0.529-0.119-0.93-0.357-1.201
		c-0.242-0.271-0.539-0.408-0.896-0.408c-0.359,0-0.66,0.137-0.9,0.406C112.844,23.434,112.725,23.843,112.725,24.388
		L112.725,24.388z"/>
</g>
</svg>
