<?xml version="1.0" encoding="utf-8"?>
<!-- Generator: Adobe Illustrator 16.0.0, SVG Export Plug-In . SVG Version: 6.00 Build 0)  -->
<!DOCTYPE svg PUBLIC "-//W3C//DTD SVG 1.1//EN" "http://www.w3.org/Graphics/SVG/1.1/DTD/svg11.dtd">
<svg version="1.1" id="Capa_1" xmlns="http://www.w3.org/2000/svg" xmlns:xlink="http://www.w3.org/1999/xlink" x="0px" y="0px"
	 width="216.523px" height="50px" viewBox="0 0 216.523 50" enable-background="new 0 0 216.523 50" xml:space="preserve">
<g>
	<g>
		<defs>
			<path id="SVGID_1_" d="M55.852,40.863h2.416l-0.527-3.263L55.852,40.863z M62.68,45.802h-1.689l-1.835-10.275l-0.245,0.043
				l1.171,6.555h-4.892h-0.124v0.247h0.124h4.937l0.61,3.431h-1.598l-0.335-2.025h-4.541l-1.181,2.025h-1.692l7.298-12.557h1.765
				L62.68,45.802z M51.171,45.802h-1.785l7.285-12.557h1.728l-7.216,12.419l-0.063,0.107L51.171,45.802z"/>
		</defs>
		<clipPath id="SVGID_2_">
			<use xlink:href="#SVGID_1_"  overflow="visible"/>
		</clipPath>
		<g clip-path="url(#SVGID_2_)">
			<defs>
				<rect id="SVGID_3_" x="-116.065" y="-226.748" width="236.357" height="756.344"/>
			</defs>
			<clipPath id="SVGID_4_">
				<use xlink:href="#SVGID_3_"  overflow="visible"/>
			</clipPath>
			<rect x="45.692" y="29.553" clip-path="url(#SVGID_4_)" fill="#EB0028" width="20.681" height="19.942"/>
		</g>
	</g>
	<g>
		<defs>
			<path id="SVGID_5_" d="M70.735,38.91c0.581-0.082,1.271-0.649,1.358-1.38c0.102-0.852-0.325-1.225-0.883-1.362h-2.852
				l-0.574,2.742H70.735z M67.098,41.953l-0.878,4.181h-1.645l2.395-11.522h4.985c1.402,0.226,2.146,1.207,2.025,2.383
				c-0.13,1.26-1.412,3.288-3.073,3.264c-1.312-0.021-1.985,0.015-3.437-0.002l-0.047,0.002l-0.123,0.002l0.005,0.259l0.124-0.001
				l0.041-0.001c1.421,0.014,2.093-0.018,3.349,0v0.011c1.272-0.081,1.592,0.432,1.727,1.67c0.078,0.721-0.113,1.198-0.248,1.861
				c-0.176,0.871-0.097,1.208,0.13,2.029l0.006,0.018h-1.853c-0.136-0.631-0.248-0.96-0.14-1.654
				c0.105-0.676,0.346-1.109,0.32-1.751c-0.015-0.325-0.063-0.681-0.407-0.728C70.097,41.938,68.031,41.963,67.098,41.953z
				 M71.776,40.36c1.383-0.52,2.336-2.231,2.451-3.34c0.159-1.53-0.947-2.463-2.252-2.669h-5.202l-2.442,11.742l-0.008,0.04h-1.656
				l2.745-13.118h7.337c1.853,0.145,3.299,1.865,3.265,3.716c-0.033,1.798-0.919,2.893-2.475,3.646
				c0.756,0.324,1.095,1.364,1.081,1.956c-0.011,0.43,0.04,0.749-0.2,1.724c-0.271,1.088-0.125,1.299,0.092,2.048H72.69
				c-0.066-0.234-0.141-0.47-0.192-0.708c-0.231-1.085,0.416-2.09,0.291-3.229C72.683,41.189,72.437,40.588,71.776,40.36z"/>
		</defs>
		<clipPath id="SVGID_6_">
			<use xlink:href="#SVGID_5_"  overflow="visible"/>
		</clipPath>
		<g clip-path="url(#SVGID_6_)">
			<defs>
				<rect id="SVGID_7_" x="-116.065" y="-226.748" width="236.357" height="756.344"/>
			</defs>
			<clipPath id="SVGID_8_">
				<use xlink:href="#SVGID_7_"  overflow="visible"/>
			</clipPath>
			<rect x="58.974" y="29.323" clip-path="url(#SVGID_8_)" fill="#EB0028" width="20.734" height="20.503"/>
		</g>
	</g>
	<g>
		<defs>
			<rect id="SVGID_9_" x="75.255" y="32.641" width="11.856" height="13.899"/>
		</defs>
		<clipPath id="SVGID_10_">
			<use xlink:href="#SVGID_9_"  overflow="visible"/>
		</clipPath>
		<g clip-path="url(#SVGID_10_)">
			<defs>
				<rect id="SVGID_11_" x="-116.065" y="-226.748" width="236.357" height="756.344"/>
			</defs>
			<clipPath id="SVGID_12_">
				<use xlink:href="#SVGID_11_"  overflow="visible"/>
			</clipPath>
			<g clip-path="url(#SVGID_12_)" enable-background="new    ">
				<g>
					<defs>
						<rect id="SVGID_13_" x="74.498" y="31.769" width="13.295" height="15.511"/>
					</defs>
					<clipPath id="SVGID_14_">
						<use xlink:href="#SVGID_13_"  overflow="visible"/>
					</clipPath>
					<g clip-path="url(#SVGID_14_)">
						<defs>
							<path id="SVGID_15_" d="M85.092,37.027h-1.8c-0.14-0.812-0.54-1.343-1.642-1.355c-0.679-0.005-1.524,0.198-1.508,0.902
								c0.014,0.697,0.601,0.812,1.227,1.035c1.124,0.279,2.034,0.352,2.94,0.716c1.424,0.569,2.302,2.338,2.172,3.647
								c-0.308,3.091-3.039,4.698-6.323,4.559c-2.98-0.125-5.318-1.215-4.842-5.243l1.557,0.001
								c-0.477,2.346,1.287,4.019,3.382,3.98c1.672-0.03,3.608-0.581,4.159-2.292c0.54-1.678-0.409-3.038-2.277-3.608
								c-1.165-0.355-3.803-0.539-3.855-2.314c-0.051-1.65,1.538-2.683,3.385-2.856c1.941-0.184,3.596,0.713,3.426,2.815
								L85.092,37.027z M78.966,41.291c-0.115,1.728,0.636,2.211,1.764,2.242c0.823,0.023,1.443-0.461,1.545-1.1
								c0.173-1.077-1.617-1.539-3.264-1.898c-1.383-0.3-2.661-1.583-2.634-3.233c0.028-1.617,1.046-3.302,3.241-4.143
								c2.014-0.771,4.229-0.638,5.517,0.105c1.4,0.812,2.036,2.026,1.971,3.763h-1.769c0.126-2.425-1.74-3.272-3.69-3.088
								c-1.878,0.176-3.667,1.25-3.612,3.123c0.057,1.985,2.732,2.157,4.031,2.557c1.791,0.548,2.591,1.788,2.114,3.275
								c-0.494,1.534-2.264,2.085-3.931,2.114c-1.959,0.036-3.606-1.518-3.126-3.72L78.966,41.291z"/>
						</defs>
						<clipPath id="SVGID_16_">
							<use xlink:href="#SVGID_15_"  overflow="visible"/>
						</clipPath>
						<g clip-path="url(#SVGID_16_)">
							<defs>
								<rect id="SVGID_17_" x="75.237" y="32.507" width="12.557" height="14.033"/>
							</defs>
							<clipPath id="SVGID_18_">
								<use xlink:href="#SVGID_17_"  overflow="visible"/>
							</clipPath>
							<rect x="71.561" y="28.948" clip-path="url(#SVGID_18_)" fill="#EB0028" width="19.244" height="21.285"/>
						</g>
					</g>
				</g>
			</g>
		</g>
	</g>
	<g>
		<defs>
			<rect id="SVGID_19_" x="28.704" y="32.641" width="11.862" height="13.864"/>
		</defs>
		<clipPath id="SVGID_20_">
			<use xlink:href="#SVGID_19_"  overflow="visible"/>
		</clipPath>
		<g clip-path="url(#SVGID_20_)">
			<defs>
				<rect id="SVGID_21_" x="-116.065" y="-226.748" width="236.357" height="756.344"/>
			</defs>
			<clipPath id="SVGID_22_">
				<use xlink:href="#SVGID_21_"  overflow="visible"/>
			</clipPath>
			<g clip-path="url(#SVGID_22_)" enable-background="new    ">
				<g>
					<defs>
						<rect id="SVGID_23_" x="27.966" y="31.769" width="13.295" height="15.511"/>
					</defs>
					<clipPath id="SVGID_24_">
						<use xlink:href="#SVGID_23_"  overflow="visible"/>
					</clipPath>
					<g clip-path="url(#SVGID_24_)">
						<defs>
							<path id="SVGID_25_" d="M30.572,41.271h1.933c-0.155,1.313,0.209,1.862,1.027,2.146c0.799,0.278,1.846-0.024,2.119-0.694
								c0.312-0.775-0.31-1.293-1.104-1.608c-1.459-0.58-1.987-0.431-2.825-0.823c-0.845-0.396-2.249-1.553-1.8-3.704
								c0.604-2.905,3.611-3.844,5.512-3.938c2.706-0.132,5.264,1.229,5.129,4.421h-1.745c0.247-4.905-7.212-3.336-7.322-0.396
								c-0.08,2.133,1.843,2.393,3.312,2.708c4.792,1.031,3.185,5.63-0.799,5.63C31.802,45.013,30.19,43.864,30.572,41.271z
								 M36.67,37.07c-0.087-0.858-0.384-1.38-1.611-1.38c-0.6,0-1.252,0.077-1.44,0.689c-0.217,0.693,0.313,0.936,0.794,1.113
								c0.828,0.306,2.604,0.31,3.579,0.923c1.205,0.701,2.054,1.904,1.917,3.519c-0.182,2.177-1.825,4.456-5.667,4.564
								c-2.758,0.08-6.046-0.75-5.471-5.228h1.552c-0.383,2.736,1.348,4,3.687,4c4.294,0,5.921-5.048,0.847-6.143
								c-1.335-0.287-3.187-0.499-3.114-2.444c0.102-2.676,7.152-4.073,6.833,0.345l-0.003,0.041H36.67z"/>
						</defs>
						<clipPath id="SVGID_26_">
							<use xlink:href="#SVGID_25_"  overflow="visible"/>
						</clipPath>
						<g clip-path="url(#SVGID_26_)">
							<defs>
								<rect id="SVGID_27_" x="28.704" y="32.507" width="12.556" height="14.033"/>
							</defs>
							<clipPath id="SVGID_28_">
								<use xlink:href="#SVGID_27_"  overflow="visible"/>
							</clipPath>
							<rect x="25.011" y="28.948" clip-path="url(#SVGID_28_)" fill="#EB0028" width="19.249" height="21.249"/>
						</g>
					</g>
				</g>
			</g>
		</g>
	</g>
	<g>
		<defs>
			<path id="SVGID_29_" d="M51.081,34.712l-0.311,1.461h-5.381l-0.444,1.931h5.042l-0.271,1.381h-5.089l-0.058,0.259h5.098
				l-0.282,1.438h-5.149l-0.366,2.02h5.434l-0.262,1.235h-0.022h-7.054l2.108-9.724H51.081z M48.678,46.135h-9.064l2.795-13.154
				h9.036l-0.31,1.472h-0.03h-7.229l-2.221,10.244h7.331L48.678,46.135z"/>
		</defs>
		<clipPath id="SVGID_30_">
			<use xlink:href="#SVGID_29_"  overflow="visible"/>
		</clipPath>
		<g clip-path="url(#SVGID_30_)">
			<defs>
				<rect id="SVGID_31_" x="-116.065" y="-226.748" width="236.357" height="756.344"/>
			</defs>
			<clipPath id="SVGID_32_">
				<use xlink:href="#SVGID_31_"  overflow="visible"/>
			</clipPath>
			<rect x="35.922" y="29.288" clip-path="url(#SVGID_32_)" fill="#EB0028" width="19.217" height="20.539"/>
		</g>
	</g>
</g>
<g>
	<g>
		<defs>
			<path id="SVGID_33_" d="M124.154,35.524c-0.978,0-1.769-0.871-1.769-1.946c0-1.076,0.791-1.946,1.769-1.946
				c0.36,0,0.691,0.119,0.97,0.32c-0.429-0.525-1.051-0.857-1.745-0.857c-1.298,0-2.351,1.157-2.351,2.586
				c0,1.427,1.053,2.584,2.351,2.584c0.903,0,1.688-0.562,2.081-1.383C125.134,35.271,124.672,35.524,124.154,35.524"/>
		</defs>
		<clipPath id="SVGID_34_">
			<use xlink:href="#SVGID_33_"  overflow="visible"/>
		</clipPath>
		<g clip-path="url(#SVGID_34_)">
			<defs>
				<rect id="SVGID_35_" x="85.574" y="-225.206" width="236.358" height="756.344"/>
			</defs>
			<clipPath id="SVGID_36_">
				<use xlink:href="#SVGID_35_"  overflow="visible"/>
			</clipPath>
			<rect x="117.335" y="27.4" clip-path="url(#SVGID_36_)" fill="#CE392B" width="11.818" height="12.558"/>
		</g>
	</g>
	<g>
		<defs>
			<rect id="SVGID_37_" x="122.029" y="33.314" width="18.892" height="14.029"/>
		</defs>
		<clipPath id="SVGID_38_">
			<use xlink:href="#SVGID_37_"  overflow="visible"/>
		</clipPath>
		<g clip-path="url(#SVGID_38_)">
			<defs>
				<rect id="SVGID_39_" x="85.574" y="-225.206" width="236.358" height="756.344"/>
			</defs>
			<clipPath id="SVGID_40_">
				<use xlink:href="#SVGID_39_"  overflow="visible"/>
			</clipPath>
			<g clip-path="url(#SVGID_40_)" enable-background="new    ">
				<g>
					<defs>
						<rect id="SVGID_41_" x="121.767" y="33.31" width="19.942" height="14.034"/>
					</defs>
					<clipPath id="SVGID_42_">
						<use xlink:href="#SVGID_41_"  overflow="visible"/>
					</clipPath>
					<g clip-path="url(#SVGID_42_)">
						<defs>
							<path id="SVGID_43_" d="M123.631,37.754c0,0,1.542,1.509,3.565,0.65l-0.159,0.342c0,0,0.703,0.443,0.659,1.266
								c0,0-0.068,0.931-1.021,1.063c0,0,0.793,0.533,0.725,1.511c0,0,0.054,0.378-0.444,1.182l-0.234-0.05
								c-0.11,0.038-0.204,0.022-0.298,0.004c0.186-0.307,0.364-0.648,0.523-1.024c0,0,0.137-0.488-0.249-1.021
								c0,0,0.092,1.11-0.634,1.332c0,0,0.589-1.599-0.317-2.154c0,0,1.653-0.021,1.518-1.064c0,0-0.158-0.688-0.747-0.889
								l-0.431,0.355c0,0,0.342,0.244,0.272,0.556c0-0.001,0.091,0.51-0.997,0.51l-0.408,0.355l-0.272-0.489
								c0,0-1.018-0.044-0.793-0.82c0,0,0.159-0.267,0.318-0.378l-0.363-0.511c0,0-1.131,0.556-0.929,1.244
								c0,0,0.227,0.888,1.472,0.999c0,0-1.856,0.487-0.995,2.085c0,0-0.816-0.132-0.566-1.598c0,0-0.68,0.267-0.362,0.955
								c0,0,0.294,0.685,0.779,1.512c-0.042,0.005-0.083,0.012-0.121,0.02c0,0-0.137,0.041-0.318,0.065
								c-0.286-0.49-0.551-1.036-0.748-1.619c0,0-0.271-1.043,0.952-1.575c0,0-0.838-0.777-0.409-1.532c0,0,0.317-0.601,0.975-0.688
								L123.631,37.754z M126.605,44.277c-0.394,0.521-0.98,1.169-1.855,1.949c0,0-0.846-0.77-1.644-1.98
								c0.155-0.001,0.317-0.002,0.483-0.004c0.336,0.515,0.731,1.037,1.16,1.452c0,0,0.644-0.484,1.318-1.43
								C126.248,44.27,126.428,44.272,126.605,44.277z M123.233,39.679c0.021,0.465,0.655,0.488,0.655,0.488
								c-0.634-0.4-0.247-1.088-0.247-1.088C123.187,39.213,123.233,39.679,123.233,39.679z M126.653,39.39
								c0,0,0.294,0.843-0.566,1.109c0,0,0.635,0.089,0.885-0.512C126.971,39.987,127.061,39.5,126.653,39.39z M124.325,41.453
								c-0.054-0.004-0.095-0.036-0.146-0.044c-0.018-0.003-0.148,0.004-0.151,0.027c-0.022,0.211,0.551,0.282,0.47-0.002
								C124.438,41.432,124.383,41.454,124.325,41.453z M125.437,41.541c-0.055-0.002-0.096-0.035-0.146-0.043
								c-0.018-0.002-0.149,0.004-0.151,0.026c-0.022,0.213,0.549,0.283,0.468-0.002C125.547,41.521,125.494,41.542,125.437,41.541z
								 M124.744,42.387c0.086,0.009,0.188,0.062,0.176-0.078c-0.01-0.123-0.167-0.175-0.271-0.167
								c-0.079,0.006-0.291,0.064-0.213,0.186C124.486,42.408,124.664,42.376,124.744,42.387z M123.798,42.705
								c0.05,0.082,0.345,0.182,0.397,0.059C124.297,42.527,123.641,42.439,123.798,42.705z M125.802,42.617
								c-0.033-0.036-0.162,0-0.202,0.002c-0.102,0.006-0.418-0.034-0.374,0.143c0.039,0.147,0.438,0.143,0.532,0.058
								C125.788,42.792,125.837,42.658,125.802,42.617z M124.501,38.79l0.611,1.133l0.771-0.91
								C125.883,39.013,125.294,39.189,124.501,38.79z M124.138,39.611c0.023,0.268,0.407,0.134,0.407,0.134l-0.159-0.378
								C124.138,39.367,124.138,39.611,124.138,39.611z M125.849,39.562l-0.222,0.344c0,0,0.354,0.198,0.424-0.061
								C126.051,39.846,126.094,39.604,125.849,39.562z M139.376,38.347c0.658,0.087,0.974,0.688,0.974,0.688
								c0.432,0.755-0.407,1.532-0.407,1.532c1.223,0.532,0.952,1.575,0.952,1.575c-0.203,0.602-0.479,1.163-0.776,1.665
								c-0.147-0.029-0.122-0.067-0.122-0.067c-0.098-0.02-0.211-0.034-0.316-0.019c0.501-0.847,0.807-1.557,0.807-1.557
								c0.316-0.688-0.362-0.955-0.362-0.955c0.249,1.466-0.566,1.598-0.566,1.598c0.861-1.598-0.997-2.085-0.997-2.085
								c1.245-0.111,1.474-0.999,1.474-0.999c0.202-0.688-0.93-1.244-0.93-1.244l-0.362,0.511c0.157,0.111,0.316,0.378,0.316,0.378
								c0.227,0.776-0.792,0.82-0.792,0.82l-0.272,0.489l-0.408-0.355c-1.088,0-0.997-0.51-0.997-0.51
								c-0.067-0.312,0.271-0.556,0.271-0.556l-0.43-0.355c-0.589,0.2-0.747,0.889-0.747,0.889
								c-0.136,1.043,1.519,1.064,1.519,1.064c-0.906,0.556-0.317,2.154-0.317,2.154c-0.728-0.222-0.635-1.332-0.635-1.332
								c-0.385,0.533-0.249,1.021-0.249,1.021c0.174,0.408,0.369,0.776,0.57,1.103c-0.081,0.029-0.162,0.065-0.25,0.094
								c-0.069,0.021-0.142,0.038-0.216,0.049c-0.618-0.924-0.558-1.356-0.558-1.356c-0.067-0.978,0.724-1.511,0.724-1.511
								c-0.949-0.133-1.018-1.063-1.018-1.063c-0.045-0.822,0.656-1.266,0.656-1.266l-0.159-0.342
								c2.024,0.858,3.564-0.65,3.564-0.65L139.376,38.347z M139.858,44.223c-0.803,1.224-1.659,2.004-1.659,2.004
								c-0.866-0.773-1.449-1.416-1.843-1.935c0.305,0.001,0.506,0.004,0.506,0.004c0.013,0.001,0.026,0.001,0.04,0.001
								c0.667,0.924,1.297,1.397,1.297,1.397c0.423-0.409,0.813-0.923,1.146-1.431C139.487,44.248,139.662,44.235,139.858,44.223z
								 M139.308,39.079c0,0,0.386,0.688-0.249,1.088c0.001,0,0.635-0.023,0.656-0.488
								C139.715,39.679,139.761,39.213,139.308,39.079z M135.978,39.987c0.25,0.601,0.883,0.512,0.883,0.512
								c-0.859-0.267-0.564-1.109-0.564-1.109C135.887,39.5,135.978,39.987,135.978,39.987z M138.452,41.435
								c-0.084,0.284,0.49,0.213,0.468,0.002c-0.002-0.023-0.134-0.03-0.151-0.027c-0.051,0.008-0.092,0.041-0.146,0.044
								C138.566,41.454,138.511,41.432,138.452,41.435z M137.342,41.522c-0.081,0.285,0.49,0.215,0.467,0.002
								c-0.002-0.022-0.134-0.028-0.15-0.026c-0.051,0.008-0.092,0.041-0.146,0.043C137.454,41.542,137.402,41.521,137.342,41.522z
								 M138.513,42.327c0.079-0.121-0.135-0.18-0.213-0.186c-0.105-0.008-0.261,0.044-0.272,0.167
								c-0.013,0.14,0.091,0.087,0.177,0.078C138.284,42.376,138.462,42.408,138.513,42.327z M138.751,42.764
								c0.055,0.123,0.351,0.023,0.398-0.059C139.31,42.439,138.651,42.527,138.751,42.764z M137.191,42.819
								c0.093,0.085,0.493,0.09,0.532-0.058c0.044-0.177-0.274-0.137-0.374-0.143c-0.04-0.002-0.169-0.038-0.202-0.002
								C137.112,42.658,137.16,42.792,137.191,42.819z M137.066,39.013l0.771,0.91l0.611-1.133
								C137.656,39.189,137.066,39.013,137.066,39.013z M138.561,39.367l-0.159,0.378c0,0,0.387,0.134,0.409-0.134
								C138.811,39.611,138.811,39.367,138.561,39.367z M136.898,39.846c0.07,0.259,0.425,0.061,0.425,0.061l-0.224-0.344
								C136.854,39.604,136.898,39.846,136.898,39.846z M128.585,33.314c0,0,1.36,1.569,3.354,1.539c0,0,1.632,0.03,3.111-0.978
								l-0.876,1.008c0,0,1.329,0.65,1.329,1.952c0,0-0.03,1.48-1.45,2.071c0,0,1.511,0.919,1.298,2.665
								c0,0-0.168,0.926-1.017,2.323c-0.135-0.025-0.264-0.071-0.357-0.178c-0.016-0.018-0.029-0.042-0.046-0.071
								c0.534-0.901,1.476-2.872,0.243-3.88c0,0,0.544,1.954-0.846,2.812c0,0,1.238-2.781-0.937-3.818c0,0,2.388-0.028,2.598-1.774
								c0-0.001,0.212-1.154-1.116-1.836l-0.514,0.562c0,0,0.544,0.917,0.089,1.332c0,0-0.482,0.71-1.539,0.296l-0.514,0.888
								l-0.393-0.8c0,0-1.51,0.356-1.451-1.153c0,0,0.031-0.415,0.514-0.621l-0.634-0.622c0,0-1.39,0.444-1.238,1.896
								c0-0.001,0.151,1.626,2.477,1.626c0,0-2.415,1.332-1.057,4.055c0,0-1.269-0.857-0.726-2.754c0,0-0.726,0.387-0.635,1.66
								c0,0-0.05,0.996,1.062,2.257c-0.016,0.027-0.04,0.052-0.082,0.071c-0.011,0.004-0.018,0.009-0.028,0.012
								c-0.101,0.036-0.218,0.049-0.323,0.08l-0.476-0.645c0,0-1.994-2.604,0.695-4.47c0,0-1.753-0.503-1.421-2.574
								c0-0.001,0.061-1.125,1.51-1.57L128.585,33.314z M134.073,44.306c-0.591,0.891-1.446,1.937-2.677,3.038l-2.208-2.994
								c0.343,0.012,0.546,0.02,0.546,0.02c0.033,0.005,0.068,0.008,0.105,0.013l1.646,2.222c0,0,1.176-1.354,1.953-2.262
								C133.541,44.324,133.775,44.313,134.073,44.306z M131.516,37.162l1.54-1.924c-1.177,0.532-2.719-0.118-2.719-0.118
								L131.516,37.162z M130.162,36.717c0.069,0.462,0.741,0.164,0.741,0.164l-0.438-0.66
								C130.062,36.32,130.162,36.717,130.162,36.717z M132.996,36.926c0.363-0.474-0.181-0.681-0.181-0.681l-0.576,0.681
								C132.452,37.368,132.996,36.927,132.996,36.926z M128.736,37.073c0.454,1.36,1.602,0.8,1.602,0.8
								c-1.841-0.474-0.937-2.309-0.937-2.309C128.435,35.919,128.736,37.073,128.736,37.073z M133.842,35.831
								c0,0,0.573,2.012-1.541,2.308c0,0,1.269,0.504,1.964-0.771C134.265,37.368,134.597,36.127,133.842,35.831z M130.55,40.037
								c-0.041-0.006-0.31-0.094-0.328-0.029c-0.111,0.367,0.917,0.485,0.776-0.03C130.835,39.955,130.723,40.062,130.55,40.037z
								 M132.693,40.327c0.086-0.062,0.196-0.206,0.086-0.291c-0.119-0.095-0.29,0.076-0.401,0.101
								c-0.098,0.023-0.243-0.035-0.325,0.046c-0.074,0.071-0.065,0.131,0.038,0.18C132.233,40.428,132.568,40.417,132.693,40.327z
								 M130.404,41.272c-0.067-0.066-0.274,0.022-0.381,0.02c-0.106-0.001-0.273-0.037-0.352,0.058
								c-0.029,0.037-0.025,0.171,0.006,0.208c0.055,0.065,0.218,0.075,0.383,0.046C130.308,41.558,130.556,41.423,130.404,41.272z
								 M131.304,41.439c0.116,0.006,0.716-0.039,0.4-0.272c-0.117-0.092-0.29,0.022-0.421-0.007
								c-0.113-0.026-0.28-0.149-0.327,0.029C130.904,41.385,131.176,41.432,131.304,41.439z M133.253,41.098
								c-0.103-0.109-0.312,0.045-0.439,0.032c-0.102-0.012-0.295-0.116-0.332,0.044c-0.044,0.19,0.207,0.177,0.335,0.177
								C132.895,41.351,133.451,41.309,133.253,41.098z M130.387,42.151c-0.162,0.248,0.762,0.447,0.688,0.045
								c-0.003-0.024-0.286-0.019-0.308,0.011C130.71,42.199,130.422,42.098,130.387,42.151z M132.295,42.212
								c-0.1,0.005-0.188-0.078-0.269-0.073c-0.224,0.012-0.132,0.259-0.004,0.329c0.183,0.098,0.62,0.121,0.688-0.138
								C132.792,42.013,132.434,42.206,132.295,42.212z"/>
						</defs>
						<clipPath id="SVGID_44_">
							<use xlink:href="#SVGID_43_"  overflow="visible"/>
						</clipPath>
						<g clip-path="url(#SVGID_44_)">
							<defs>
								<rect id="SVGID_45_" x="121.767" y="33.31" width="19.203" height="14.034"/>
							</defs>
							<clipPath id="SVGID_46_">
								<use xlink:href="#SVGID_45_"  overflow="visible"/>
							</clipPath>
							<rect x="118.335" y="29.621" clip-path="url(#SVGID_46_)" fill="#CE392B" width="26.278" height="21.416"/>
						</g>
					</g>
				</g>
			</g>
		</g>
	</g>
	<g>
		<defs>
			<path id="SVGID_47_" d="M133.255,43.712c-0.151,0.1-0.376,0.05-0.376,0.05c-0.181-0.217-0.347-0.05-0.347-0.05
				c-0.316,0.199-0.526,0.033-0.526,0.033c-0.437-0.2-0.572,0.282-0.572,0.282c-0.058,0.517-0.288,0.517-0.288,0.517
				c-0.207,0-0.343-0.38-0.343-0.38c-0.062-0.23-0.196-0.402-0.497-0.119c-0.127,0.119-0.24-0.116-0.24-0.116
				c-0.151-0.234-0.33,0-0.33,0c-0.197,0.15-0.332,0-0.332,0c-0.513-0.268-1.069,0.609-1.069,0.609
				c-0.413,0.032-0.912-0.043-1.128-0.043c-0.404,0-0.587-0.183-0.587-0.183l-0.278-0.067c-0.193,0.076-0.334-0.036-0.514-0.02
				c-0.101,0.011-0.272,0.229-0.347-0.001c-0.145,0-0.192,0.104-0.359,0.071c-0.077-0.017-0.074-0.079-0.155-0.101
				c-0.064-0.018-0.157,0-0.225,0c-0.074,0-0.155-0.013-0.228,0c-0.062,0.01-0.139,0.081-0.182,0.075
				c-0.187-0.027-0.124-0.114-0.31-0.051c-0.073,0.025-0.058,0.108-0.163,0.1c-0.099-0.007-0.062-0.114-0.131-0.132
				c-0.174-0.047-0.19,0.098-0.299,0.132c-0.167,0.056-0.109-0.022-0.27-0.094c-0.126-0.055-0.279-0.035-0.407-0.006
				c0,0-0.315,0.108-0.633,0.093l-0.075,0.001c0,0-1.804,0.196-2.36,0.015l-0.828,0.183l0.585,0.899l1.175,0.018
				c0,0-1.038,0.883-1.654,1l-0.151,0.116l0.452,0.8c0,0,1.475-0.333,2.091-0.966c0-0.001,0.691-0.65,0.737-0.784
				c0,0,1.113,0,3.129,0.034c0,0,3.987,0.168,5.191,0.183c0,0,2.768-0.066,4.228-0.217c0,0,4.936,0.134,6.514-0.1
				c0,0,0.903-0.033,1.129,0.033l0.15-0.883l0.017-0.066l-2.822-0.19c-0.188-0.147-0.341-0.168-0.468-0.111
				c-0.161,0.068-0.101,0.148-0.27,0.093c-0.106-0.036-0.125-0.178-0.3-0.133c-0.068,0.019-0.03,0.125-0.128,0.133
				c-0.106,0.008-0.094-0.073-0.164-0.099c-0.186-0.065-0.125,0.022-0.311,0.05c-0.043,0.006-0.119-0.065-0.18-0.075
				c-0.073-0.013-0.156,0-0.229,0c-0.068,0-0.159-0.018-0.226,0c-0.082,0.022-0.077,0.083-0.156,0.1
				c-0.166,0.035-0.214-0.072-0.357-0.069c-0.075,0.229-0.244,0.01-0.348,0.001c-0.224-0.023-0.387,0.093-0.586,0.165
				c-0.191,0.068-0.404,0.085-0.604,0.085c-0.412,0-0.836,0.092-1.239-0.019c-0.041-0.01-0.118,0.007-0.123-0.041
				C133.842,43.423,133.255,43.712,133.255,43.712 M128.844,44.801c0.163-0.091,0.063-0.256,0.195-0.397
				c0.236-0.26,0.364,0.307,0.504,0.409c0.172,0.126,0.198-0.118,0.251-0.239c0.132-0.308,0.193,0.021,0.367,0.112
				c0.224,0.116,0.232-0.35,0.421-0.224c0.141,0.094,0.089,0.402,0.221,0.508c0.165,0.132,0.426,0.112,0.587-0.018
				c0.167-0.136,0.142-0.54,0.351-0.61c0.159-0.053,0.229,0.164,0.357,0.21c0.197,0.075,0.254-0.142,0.359-0.273
				c0.176-0.222,0.178,0.007,0.257,0.15c0.173,0.319,0.296-0.135,0.432-0.222c0.254-0.163,0.32,0.319,0.424,0.454
				c0.147,0.19,0.385,0.211,0.592,0.232c0.378,0.04,0.758,0.048,1.14,0.05c0.2,0.001,0.413-0.015,0.604-0.085
				c0.199-0.072,0.362-0.188,0.586-0.166c0.104,0.01,0.272,0.229,0.348,0c0.144-0.004,0.191,0.104,0.357,0.069
				c0.079-0.017,0.073-0.078,0.156-0.101c0.066-0.018,0.157,0,0.226,0c0.072,0,0.155-0.012,0.229,0
				c0.061,0.012,0.137,0.083,0.18,0.075c0.186-0.026,0.125-0.114,0.311-0.051c0.07,0.025,0.058,0.108,0.164,0.101
				c0.098-0.007,0.06-0.113,0.128-0.132c0.176-0.048,0.193,0.097,0.3,0.132c0.169,0.055,0.107-0.023,0.27-0.094
				c0.127-0.054,0.28-0.036,0.408-0.007c0,0-0.098,0.159,1.18,0.108l1.265,0.066l-0.076,0.269c0,0-2.421,0.049-3.158,0.166
				c0,0-1.972,0.032-2.332,0.018c0,0-3.251-0.035-3.46,0.064c0-0.001-2.769,0.15-3.642,0.018c0,0-5.025-0.217-7.342-0.117
				c0,0-0.676,1.001-2.604,1.667l-0.165-0.251c0,0,1.64-0.616,1.956-1.199l-0.301-0.399c0,0-1.024,0.083-1.323-0.133l-0.123-0.183
				l2.679-0.052c0.317,0.018,0.633-0.092,0.633-0.092c0.128-0.03,0.281-0.049,0.407,0.007c0.16,0.069,0.103,0.148,0.27,0.094
				c0.108-0.035,0.125-0.178,0.299-0.132c0.069,0.018,0.032,0.123,0.131,0.132c0.105,0.009,0.09-0.075,0.163-0.101
				c0.186-0.063,0.123,0.023,0.31,0.052c0.043,0.005,0.119-0.065,0.182-0.076c0.072-0.012,0.153,0,0.228,0
				c0.067,0,0.16-0.018,0.225,0c0.081,0.021,0.078,0.084,0.155,0.1c0.167,0.034,0.215-0.071,0.359-0.071
				c0.074,0.231,0.246,0.012,0.347,0.003c0.18-0.018,0.32,0.095,0.514,0.019l0.278,0.066c0,0,0.183,0.184,0.587,0.184
				c0,0,1.128,0.033,1.265,0c0.111-0.041,0.237-0.053,0.345-0.098C128.825,44.809,128.833,44.806,128.844,44.801"/>
		</defs>
		<clipPath id="SVGID_48_">
			<use xlink:href="#SVGID_47_"  overflow="visible"/>
		</clipPath>
		<g clip-path="url(#SVGID_48_)">
			<defs>
				<rect id="SVGID_49_" x="85.574" y="-225.206" width="236.358" height="756.344"/>
			</defs>
			<clipPath id="SVGID_50_">
				<use xlink:href="#SVGID_49_"  overflow="visible"/>
			</clipPath>
			<rect x="115.119" y="39.958" clip-path="url(#SVGID_50_)" fill="#E20714" width="31.021" height="11.079"/>
		</g>
	</g>
	<g>
		<defs>
			<rect id="SVGID_51_" x="146.232" y="36.409" width="57.99" height="9.293"/>
		</defs>
		<clipPath id="SVGID_52_">
			<use xlink:href="#SVGID_51_"  overflow="visible"/>
		</clipPath>
		<g clip-path="url(#SVGID_52_)">
			<defs>
				<rect id="SVGID_53_" x="85.574" y="-225.206" width="236.358" height="756.344"/>
			</defs>
			<clipPath id="SVGID_54_">
				<use xlink:href="#SVGID_53_"  overflow="visible"/>
			</clipPath>
			<g clip-path="url(#SVGID_54_)" enable-background="new    ">
				<g>
					<defs>
						<rect id="SVGID_55_" x="145.403" y="35.525" width="59.089" height="11.079"/>
					</defs>
					<clipPath id="SVGID_56_">
						<use xlink:href="#SVGID_55_"  overflow="visible"/>
					</clipPath>
					<g clip-path="url(#SVGID_56_)">
						<defs>
							<path id="SVGID_57_" d="M150.903,38.551c0,0-2.223,0.927-2.313,1.452c0,0-0.424,0.649,1.25,0.496
								c0-0.001,5.02-0.496,5.203,1.792c0,0,0.062,0.927-0.914,1.7c0,0-2.189,2.103-6.086,1.422c0,0-1.764-0.124-1.703-1.175
								c0,0,0.273-0.494,0.941,0c0,0,3.562,0.928,5.267-0.525c0,0,0.761-0.741,0.211-1.081c0,0-1.002-0.525-2.343-0.557
								c0,0-3.985,0.463-4.168-1.175c0,0-0.335-1.423,2.1-2.782c0,0,3.592-1.762,6.695-1.639c0,0,1.704-0.464,1.826,0.99
								c0-0.001-0.609,1.39-2.861,1.514c0,0-2.222,0.092-2.435-0.463C151.573,38.521,151.482,38.364,150.903,38.551z
								 M153.643,38.303c0,0,0.639-0.092,0.485-0.555c0,0-0.79-0.372-1.49,0.248C152.638,37.996,152.364,38.489,153.643,38.303z
								 M161.19,41.55c0,0,0.214-0.897-2.223-0.588c0,0-3.621,0.648-3.561,3.184c0,0,0.366,2.009,2.467,1.051
								c0,0,1.368-0.741,1.704-0.958c0,0,0.12,1.607,1.734,1.453c0,0,1.064,0.092,2.038-1.236c0-0.001,0.974-1.268,1.188-1.205
								c0,0,0.517-0.062,0.181,0.494c0,0-0.76,1.236,0.305,1.482c0,0,1.156,0.403,1.828-0.648c0,0,1.032-1.606,1.641-1.606
								c0,0,0.244,0.092-0.15,0.648c0,0-0.579,1.606,1.034,1.731c0,0,1.582,0.154,1.856-0.556c0,0,0.304-0.682-0.519-0.249
								c0,0-1.125,0.68-0.699-0.339c0,0,1.705-2.258,0.061-2.875c0,0-0.882-0.402-1.521,0.062c0,0-0.943,1.021-1.369,1.082
								c0,0-0.334,0.062-0.396-0.68c0,0-0.335-1.112-1.704-0.434c0,0-0.883,0.774-2.496,2.752c0,0-1.491,1.545-1.095,0.03
								c0,0,1.064-1.701-0.062-2.102c0,0-0.639-0.309-1.613,0.711c0,0-1.978,1.763-2.464,1.763c0,0-0.609-0.093,0.274-1.237
								c0,0,0.941-1.299,2.586-1.422C160.216,41.858,161.19,41.858,161.19,41.55z M174.641,40.993
								c-0.365,1.051,0.396,0.246,0.396,0.246c1.887-0.989,1.887,1.021,1.887,1.021c0.365,0.495,1.096-0.122,1.096-0.122
								c0.366-0.25,0.822-0.713,0.822-0.713c1.217-1.111,2.009-0.277,2.009-0.277c0.184,0.495,0.64,0.124,0.64,0.124
								c1.552-0.463,1.246,0.741,1.246,0.741c-0.456,0.125-0.212,0.648-0.212,0.648c0.184,0.649,1.127-0.37,1.127-0.37
								c0.547-0.153,0.274-0.928,0.274-0.928c0.028-0.618,0.79-0.37,0.79-0.37c0.517,0.401,1.247,0.092,1.247,0.092
								c1.216-0.062,1.096,0.587,1.096,0.587c0.455,0.466,0,0.989,0,0.989c-0.853,0.805-0.883,1.7-0.883,1.7
								c0.062,1.021,2.1-1.39,2.1-1.39c1.553-2.227,2.922-1.887,2.922-1.887c1.248-0.03,0.913,1.887,0.913,1.887l1.553-1.453
								c0.546-0.773,1.338-0.525,1.338-0.525c1.705,0.432,0.427,2.565,0.427,2.565c-0.334,0.866,0.487,0.525,0.487,0.525
								c0.578-0.834,1.947-2.134,1.947-2.134c2.191-2.039,3.288-1.544,3.288-1.544c0.852,0.184,0.119,0.865,0.119,0.865
								c-0.425,0.617-0.119,1.73-0.119,1.73l3.072,0.031l-0.913,1.082l-2.587-0.032c-0.425,0.928-1.643,0.928-1.643,0.928
								c-1.49-0.153-1.613-1.391-1.613-1.391c-0.243-0.032-1.096,0.927-1.096,0.927c-0.579,0.773-2.283,0.186-2.283,0.186
								c-0.912-0.278-0.333-1.761-0.333-1.761c-0.275-0.248-1.645,1.359-1.645,1.359c-0.76,1.144-1.735,0.68-1.735,0.68
								c-1.157-0.341-0.456-1.761-0.456-1.761c0.426-0.712,0.306-0.896,0.306-0.896c-0.641,0.37-1.767,1.792-1.767,1.792
								c-2.313,2.288-3.833,0.526-3.833,0.526c-0.732-1.113,0.941-2.565,0.941-2.565c-0.364-0.279-0.699,0.031-0.699,0.031
								c-1.035,1.915-2.921,1.73-2.921,1.73c-0.518,0.928-1.767,1.328-1.767,1.328c-3.224,0.865-2.464-1.792-2.464-1.792
								c-0.822,0.246-0.943-0.03-0.943-0.03c-0.062,0.215-0.639,0.308-0.639,0.308s-1.218,1.67-2.619,1.701
								c-1.398,0.029-1.794-0.805-1.58-2.195c0.212-1.391,2.038-4.112,2.038-4.112c-0.274,0.155-0.577-0.061-0.577-0.061
								c-0.245-0.525,1.398-1.205,1.398-1.205c1.31-0.588,0.883,0.277,0.883,0.277L174.641,40.993z M173.698,42.972
								c-0.548,1.698,0.091,1.854,0.091,1.854c0.609-0.031,1.097-1.174,1.097-1.174c0.153-0.617-0.52-1.392-0.52-1.392
								C173.972,42.167,173.698,42.972,173.698,42.972z M179.661,42.724c-0.912,2.442,0.274,1.887,0.274,1.887
								c0.914-0.558,0.914-1.268,0.914-1.268c0.029-0.434-0.455-1.176-0.455-1.176C180.058,41.95,179.661,42.724,179.661,42.724z
								 M199.444,41.735c0,0-1.063,0.309-1.095,1.236c0,0,0.517,0.278,0.943-0.094C199.292,42.878,199.476,42.013,199.444,41.735z"
								/>
						</defs>
						<clipPath id="SVGID_58_">
							<use xlink:href="#SVGID_57_"  overflow="visible"/>
						</clipPath>
						<g clip-path="url(#SVGID_58_)">
							<defs>
								<rect id="SVGID_59_" x="146.141" y="36.265" width="58.351" height="9.603"/>
							</defs>
							<clipPath id="SVGID_60_">
								<use xlink:href="#SVGID_59_"  overflow="visible"/>
							</clipPath>
							<rect x="142.538" y="32.716" clip-path="url(#SVGID_60_)" fill="#CE392B" width="65.377" height="16.68"/>
						</g>
					</g>
				</g>
			</g>
		</g>
	</g>
</g>
<g>
	<g>
		<defs>
			<rect id="SVGID_61_" x="152.625" y="4.181" width="17.776" height="19.145"/>
		</defs>
		<clipPath id="SVGID_62_">
			<use xlink:href="#SVGID_61_"  overflow="visible"/>
		</clipPath>
		<g clip-path="url(#SVGID_62_)">
			<defs>
				<rect id="SVGID_63_" x="86.305" y="-269.991" width="218.791" height="700.13"/>
			</defs>
			<clipPath id="SVGID_64_">
				<use xlink:href="#SVGID_63_"  overflow="visible"/>
			</clipPath>
			<rect x="149.207" y="0.762" clip-path="url(#SVGID_64_)" fill="#006546" width="24.613" height="25.982"/>
		</g>
	</g>
	<g>
		<defs>
			<path id="SVGID_65_" d="M163.68,21.444v0.717h-4.247v-0.717h-3.214c-0.315,0-0.569-0.341-0.569-0.762l-1.344-14.143
				c0-0.422,0.313-0.763,0.699-0.763h12.986c0.387,0,0.699,0.341,0.699,0.763l-1.329,14.143c0,0.421-0.255,0.762-0.569,0.762
				L163.68,21.444z"/>
		</defs>
		<clipPath id="SVGID_66_">
			<use xlink:href="#SVGID_65_"  overflow="visible"/>
		</clipPath>
		<g clip-path="url(#SVGID_66_)">
			<defs>
				<rect id="SVGID_67_" x="86.305" y="-269.991" width="218.791" height="700.13"/>
			</defs>
			<clipPath id="SVGID_68_">
				<use xlink:href="#SVGID_67_"  overflow="visible"/>
			</clipPath>
			<rect x="150.888" y="2.356" clip-path="url(#SVGID_68_)" fill="#FFFFFF" width="21.222" height="23.224"/>
		</g>
	</g>
	<g>
		<defs>
			<path id="SVGID_69_" d="M156.669,7.845h8.695c-0.856,0.334-3.463,2.169-4.114,3.403h-4.571L156.669,7.845z"/>
		</defs>
		<clipPath id="SVGID_70_">
			<use xlink:href="#SVGID_69_"  overflow="visible"/>
		</clipPath>
		<g clip-path="url(#SVGID_70_)">
			<defs>
				<rect id="SVGID_71_" x="86.305" y="-269.991" width="218.791" height="700.13"/>
			</defs>
			<clipPath id="SVGID_72_">
				<use xlink:href="#SVGID_71_"  overflow="visible"/>
			</clipPath>
			<rect x="153.25" y="4.427" clip-path="url(#SVGID_72_)" fill="#FF6600" width="15.533" height="10.24"/>
		</g>
	</g>
	<g>
		<defs>
			<path id="SVGID_73_" d="M163.599,17.594c-0.124,1.232-0.128,2.732-0.128,4.309h-3.77c0-1.576,0.062-3.076,0.186-4.309H163.599z"
				/>
		</defs>
		<clipPath id="SVGID_74_">
			<use xlink:href="#SVGID_73_"  overflow="visible"/>
		</clipPath>
		<g clip-path="url(#SVGID_74_)">
			<defs>
				<rect id="SVGID_75_" x="86.305" y="-269.991" width="218.791" height="700.13"/>
			</defs>
			<clipPath id="SVGID_76_">
				<use xlink:href="#SVGID_75_"  overflow="visible"/>
			</clipPath>
			<rect x="156.283" y="14.176" clip-path="url(#SVGID_76_)" fill="#FE000C" width="10.734" height="11.145"/>
		</g>
	</g>
	<g>
		<defs>
			<polygon id="SVGID_77_" points="156.391,14.77 157.769,14.77 157.769,15.336 157.167,15.336 157.167,15.813 157.769,15.813 
				157.769,16.292 157.167,16.292 157.167,16.769 157.769,16.769 157.769,17.316 156.391,17.316 			"/>
		</defs>
		<clipPath id="SVGID_78_">
			<use xlink:href="#SVGID_77_"  overflow="visible"/>
		</clipPath>
		<g clip-path="url(#SVGID_78_)">
			<defs>
				<rect id="SVGID_79_" x="86.305" y="-269.991" width="218.791" height="700.13"/>
			</defs>
			<clipPath id="SVGID_80_">
				<use xlink:href="#SVGID_79_"  overflow="visible"/>
			</clipPath>
			<rect x="152.973" y="11.351" clip-path="url(#SVGID_80_)" fill="#006546" width="8.215" height="9.384"/>
		</g>
	</g>
	<g>
		<defs>
			<polygon id="SVGID_81_" points="159.597,14.77 160.974,14.77 160.974,15.336 160.371,15.336 160.371,15.813 160.974,15.813 
				160.974,16.292 160.371,16.292 160.371,16.769 160.974,16.769 160.974,17.316 159.597,17.316 			"/>
		</defs>
		<clipPath id="SVGID_82_">
			<use xlink:href="#SVGID_81_"  overflow="visible"/>
		</clipPath>
		<g clip-path="url(#SVGID_82_)">
			<defs>
				<rect id="SVGID_83_" x="86.305" y="-269.991" width="218.791" height="700.13"/>
			</defs>
			<clipPath id="SVGID_84_">
				<use xlink:href="#SVGID_83_"  overflow="visible"/>
			</clipPath>
			<rect x="156.178" y="11.351" clip-path="url(#SVGID_84_)" fill="#006546" width="8.215" height="9.384"/>
		</g>
	</g>
	<g>
		<defs>
			<polygon id="SVGID_85_" points="163.126,14.77 164.503,14.77 164.503,15.336 163.901,15.336 163.901,15.813 164.503,15.813 
				164.503,16.292 163.901,16.292 163.901,16.769 164.503,16.769 164.503,17.316 163.126,17.316 			"/>
		</defs>
		<clipPath id="SVGID_86_">
			<use xlink:href="#SVGID_85_"  overflow="visible"/>
		</clipPath>
		<g clip-path="url(#SVGID_86_)">
			<defs>
				<rect id="SVGID_87_" x="86.305" y="-269.991" width="218.791" height="700.13"/>
			</defs>
			<clipPath id="SVGID_88_">
				<use xlink:href="#SVGID_87_"  overflow="visible"/>
			</clipPath>
			<rect x="159.707" y="11.351" clip-path="url(#SVGID_88_)" fill="#006546" width="8.215" height="9.384"/>
		</g>
	</g>
	<g>
		<defs>
			<polygon id="SVGID_89_" points="158.802,16.769 159.405,16.769 159.405,17.316 158.029,17.316 158.029,14.77 158.802,14.77 			
				"/>
		</defs>
		<clipPath id="SVGID_90_">
			<use xlink:href="#SVGID_89_"  overflow="visible"/>
		</clipPath>
		<g clip-path="url(#SVGID_90_)">
			<defs>
				<rect id="SVGID_91_" x="86.305" y="-269.991" width="218.791" height="700.13"/>
			</defs>
			<clipPath id="SVGID_92_">
				<use xlink:href="#SVGID_91_"  overflow="visible"/>
			</clipPath>
			<rect x="154.61" y="11.351" clip-path="url(#SVGID_92_)" fill="#006546" width="8.214" height="9.384"/>
		</g>
	</g>
	<g>
		<defs>
			<polygon id="SVGID_93_" points="161.115,14.77 161.498,17.316 162.495,17.316 162.96,14.77 162.385,14.77 162.083,16.49 
				161.79,14.77 			"/>
		</defs>
		<clipPath id="SVGID_94_">
			<use xlink:href="#SVGID_93_"  overflow="visible"/>
		</clipPath>
		<g clip-path="url(#SVGID_94_)">
			<defs>
				<rect id="SVGID_95_" x="86.305" y="-269.991" width="218.791" height="700.13"/>
			</defs>
			<clipPath id="SVGID_96_">
				<use xlink:href="#SVGID_95_"  overflow="visible"/>
			</clipPath>
			<rect x="157.696" y="11.351" clip-path="url(#SVGID_96_)" fill="#006546" width="8.684" height="9.384"/>
		</g>
	</g>
	<g>
		<defs>
			<rect id="SVGID_97_" x="152.625" y="4.213" width="17.706" height="19.112"/>
		</defs>
		<clipPath id="SVGID_98_">
			<use xlink:href="#SVGID_97_"  overflow="visible"/>
		</clipPath>
		<g clip-path="url(#SVGID_98_)">
			<defs>
				<rect id="SVGID_99_" x="86.305" y="-269.991" width="218.791" height="700.13"/>
			</defs>
			<clipPath id="SVGID_100_">
				<use xlink:href="#SVGID_99_"  overflow="visible"/>
			</clipPath>
			<g clip-path="url(#SVGID_100_)" enable-background="new    ">
				<g>
					<defs>
						<rect id="SVGID_101_" x="160.147" y="7.6" width="6.837" height="11.623"/>
					</defs>
					<clipPath id="SVGID_102_">
						<use xlink:href="#SVGID_101_"  overflow="visible"/>
					</clipPath>
					<g clip-path="url(#SVGID_102_)">
						<defs>
							<rect id="SVGID_103_" x="164.828" y="14.77" width="0.745" height="2.546"/>
						</defs>
						<clipPath id="SVGID_104_">
							<use xlink:href="#SVGID_103_"  overflow="visible"/>
						</clipPath>
						<g clip-path="url(#SVGID_104_)">
							<defs>
								<rect id="SVGID_105_" x="152.625" y="4.181" width="17.776" height="19.145"/>
							</defs>
							<clipPath id="SVGID_106_">
								<use xlink:href="#SVGID_105_"  overflow="visible"/>
							</clipPath>
							<rect x="161.41" y="11.351" clip-path="url(#SVGID_106_)" fill="#006546" width="7.582" height="9.384"/>
						</g>
					</g>
					<g clip-path="url(#SVGID_102_)">
						<defs>
							<path id="SVGID_107_" d="M165.573,15.526c0.04-0.28,0.422-0.205,0.422-0.046v1.835h0.746v-2.159
								c0-0.458-0.622-0.641-1.162-0.239"/>
						</defs>
						<clipPath id="SVGID_108_">
							<use xlink:href="#SVGID_107_"  overflow="visible"/>
						</clipPath>
						<g clip-path="url(#SVGID_108_)">
							<defs>
								<rect id="SVGID_109_" x="152.625" y="4.181" width="17.776" height="19.145"/>
							</defs>
							<clipPath id="SVGID_110_">
								<use xlink:href="#SVGID_109_"  overflow="visible"/>
							</clipPath>
							<rect x="162.156" y="11.278" clip-path="url(#SVGID_110_)" fill="#006546" width="8.004" height="9.457"/>
						</g>
					</g>
					<g clip-path="url(#SVGID_102_)">
						<defs>
							<path id="SVGID_111_" d="M163.948,14.412c0.076-0.976,1.357-2.567,2.603-2.984V7.667c-3.42,1.592-5.645,3.999-6.125,6.735
								L163.948,14.412z"/>
						</defs>
						<clipPath id="SVGID_112_">
							<use xlink:href="#SVGID_111_"  overflow="visible"/>
						</clipPath>
						<g clip-path="url(#SVGID_112_)">
							<defs>
								<rect id="SVGID_113_" x="152.625" y="4.181" width="17.776" height="19.145"/>
							</defs>
							<clipPath id="SVGID_114_">
								<use xlink:href="#SVGID_113_"  overflow="visible"/>
							</clipPath>
							<rect x="157.006" y="4.248" clip-path="url(#SVGID_114_)" fill="#FE000C" width="12.964" height="13.583"/>
						</g>
					</g>
					<g clip-path="url(#SVGID_102_)">
						<defs>
							<path id="SVGID_115_" d="M164.94,18.678c-0.097,0.1-0.212,0.151-0.35,0.151c-0.137,0-0.254-0.051-0.35-0.151
								c-0.095-0.101-0.144-0.223-0.144-0.365c0-0.141,0.049-0.263,0.146-0.363c0.095-0.1,0.21-0.149,0.347-0.149
								c0.138,0,0.253,0.05,0.35,0.149c0.098,0.1,0.146,0.221,0.146,0.363S165.037,18.577,164.94,18.678z M164.289,18.001
								c-0.083,0.086-0.125,0.19-0.125,0.312c0,0.123,0.042,0.228,0.125,0.314c0.082,0.087,0.183,0.129,0.301,0.129
								c0.119,0,0.219-0.042,0.302-0.129c0.082-0.086,0.123-0.191,0.123-0.314c0-0.122-0.041-0.226-0.123-0.312
								c-0.083-0.087-0.184-0.13-0.302-0.13C164.473,17.871,164.372,17.914,164.289,18.001z M164.582,18.029
								c0.066,0,0.115,0.006,0.147,0.02c0.057,0.024,0.084,0.072,0.084,0.143c0,0.051-0.018,0.088-0.053,0.112
								c-0.018,0.013-0.044,0.022-0.078,0.027c0.041,0.006,0.072,0.025,0.093,0.055c0.019,0.029,0.029,0.059,0.029,0.087v0.042
								c0,0.013,0,0.027,0.002,0.042c0,0.016,0.002,0.025,0.004,0.029l0.003,0.007h-0.09c0-0.002,0-0.004-0.001-0.005
								c0-0.002,0-0.005-0.001-0.007l-0.001-0.018v-0.044c0-0.065-0.018-0.108-0.052-0.129c-0.021-0.012-0.058-0.018-0.107-0.018
								h-0.075v0.222h-0.096v-0.564H164.582z M164.686,18.12c-0.025-0.013-0.062-0.021-0.118-0.021h-0.081v0.202h0.088
								c0.04,0,0.07-0.004,0.091-0.012c0.038-0.015,0.057-0.044,0.057-0.088C164.722,18.161,164.709,18.134,164.686,18.12z"/>
						</defs>
						<clipPath id="SVGID_116_">
							<use xlink:href="#SVGID_115_"  overflow="visible"/>
						</clipPath>
						<g clip-path="url(#SVGID_116_)">
							<defs>
								<rect id="SVGID_117_" x="152.625" y="4.181" width="17.776" height="19.145"/>
							</defs>
							<clipPath id="SVGID_118_">
								<use xlink:href="#SVGID_117_"  overflow="visible"/>
							</clipPath>
							<rect x="160.679" y="14.382" clip-path="url(#SVGID_118_)" fill="#006546" width="7.825" height="7.864"/>
						</g>
					</g>
				</g>
			</g>
		</g>
	</g>
</g>
<g>
	<g>
		<defs>
			<path id="SVGID_119_" d="M40.311,4.626c0-0.603,0.493-1.096,1.096-1.096h33.001c0.603,0,1.096,0.493,1.096,1.096v14.028
				c0,0.604-0.494,1.096-1.096,1.096H41.407c-0.603,0-1.096-0.492-1.096-1.096V4.626z"/>
		</defs>
		<clipPath id="SVGID_120_">
			<use xlink:href="#SVGID_119_"  overflow="visible"/>
		</clipPath>
		<g clip-path="url(#SVGID_120_)">
			<defs>
				<rect id="SVGID_121_" x="-90.539" y="-249.992" width="201.308" height="644.185"/>
			</defs>
			<clipPath id="SVGID_122_">
				<use xlink:href="#SVGID_121_"  overflow="visible"/>
			</clipPath>
			<rect x="37.166" y="0.385" clip-path="url(#SVGID_122_)" fill="#EEA617" width="41.483" height="22.51"/>
		</g>
	</g>
	<g>
		<defs>
			<rect id="SVGID_123_" x="40.311" y="3.53" width="35.193" height="16.22"/>
		</defs>
		<clipPath id="SVGID_124_">
			<use xlink:href="#SVGID_123_"  overflow="visible"/>
		</clipPath>
		<g clip-path="url(#SVGID_124_)">
			<defs>
				<rect id="SVGID_125_" x="-90.539" y="-249.992" width="201.308" height="644.185"/>
			</defs>
			<clipPath id="SVGID_126_">
				<use xlink:href="#SVGID_125_"  overflow="visible"/>
			</clipPath>
			<g clip-path="url(#SVGID_126_)" enable-background="new    ">
				<g>
					<defs>
						<rect id="SVGID_127_" x="40.311" y="4.788" width="35.229" height="13.84"/>
					</defs>
					<clipPath id="SVGID_128_">
						<use xlink:href="#SVGID_127_"  overflow="visible"/>
					</clipPath>
					<g clip-path="url(#SVGID_128_)">
						<defs>
							<rect id="SVGID_129_" x="40.311" y="5.123" width="35.193" height="13.035"/>
						</defs>
						<clipPath id="SVGID_130_">
							<use xlink:href="#SVGID_129_"  overflow="visible"/>
						</clipPath>
						<g clip-path="url(#SVGID_130_)">
							<defs>
								<rect id="SVGID_131_" x="40.311" y="3.53" width="35.229" height="16.356"/>
							</defs>
							<clipPath id="SVGID_132_">
								<use xlink:href="#SVGID_131_"  overflow="visible"/>
							</clipPath>
							<rect x="37.166" y="1.978" clip-path="url(#SVGID_132_)" fill="#FEFEFE" width="41.483" height="19.326"/>
						</g>
					</g>
					<g clip-path="url(#SVGID_128_)">
						<defs>
							<path id="SVGID_133_" d="M70.136,8.508c-1.61,0-2.923,1.312-2.923,2.923c0,1.609,1.312,2.922,2.923,2.922
								c1.611,0,2.923-1.313,2.923-2.922C73.059,9.821,71.747,8.508,70.136,8.508"/>
						</defs>
						<clipPath id="SVGID_134_">
							<use xlink:href="#SVGID_133_"  overflow="visible"/>
						</clipPath>
						<g clip-path="url(#SVGID_134_)">
							<defs>
								<rect id="SVGID_135_" x="40.311" y="3.53" width="35.229" height="16.356"/>
							</defs>
							<clipPath id="SVGID_136_">
								<use xlink:href="#SVGID_135_"  overflow="visible"/>
							</clipPath>
							<rect x="64.068" y="5.363" clip-path="url(#SVGID_136_)" fill="#E20714" width="12.137" height="12.136"/>
						</g>
					</g>
					<g clip-path="url(#SVGID_128_)">
						<defs>
							<path id="SVGID_137_" d="M46.047,8.508c-1.611,0-2.923,1.312-2.923,2.923c0,1.609,1.312,2.922,2.923,2.922
								c1.609,0,2.921-1.313,2.921-2.922C48.968,9.821,47.656,8.508,46.047,8.508"/>
						</defs>
						<clipPath id="SVGID_138_">
							<use xlink:href="#SVGID_137_"  overflow="visible"/>
						</clipPath>
						<g clip-path="url(#SVGID_138_)">
							<defs>
								<rect id="SVGID_139_" x="40.311" y="3.53" width="35.229" height="16.356"/>
							</defs>
							<clipPath id="SVGID_140_">
								<use xlink:href="#SVGID_139_"  overflow="visible"/>
							</clipPath>
							<rect x="39.978" y="5.363" clip-path="url(#SVGID_140_)" fill="#E20714" width="12.136" height="12.136"/>
						</g>
					</g>
					<g clip-path="url(#SVGID_128_)">
						<defs>
							<path id="SVGID_141_" d="M69.908,5.936c-2.707-0.062-3.979,1.672-5.825,3.812l-1.742,2.019l2.758,3.301
								c0.657,1.015-0.597,2.021-1.375,1.093l-2.55-3.041L58.691,16c-0.792,0.917-2.032-0.107-1.36-1.112l2.697-3.136L58.26,9.643
								l1.137-1.407l1.797,2.159l1.548-1.803c0.76-0.883,1.535-2.053,2.541-2.655H40.311v11.409h5.839
								c2.706,0,3.934-1.618,5.73-3.799l1.694-2.059L50.741,8.25c-0.679-0.999,0.55-2.034,1.349-1.124l2.62,2.981l2.418-2.937
								c0.769-0.935,2.032,0.061,1.385,1.081l-2.625,3.198l1.814,2.067l-1.143,1.354l-1.807-2.038l-1.507,1.836
								c-0.739,0.901-1.488,2.05-2.479,2.675h24.737V5.936H69.908z M50.663,11.431c0,2.543-2.074,4.618-4.617,4.618
								c-2.544,0-4.618-2.075-4.618-4.618c0-2.543,2.074-4.618,4.618-4.618C48.589,6.813,50.663,8.888,50.663,11.431z
								 M70.136,16.049c-2.543,0-4.618-2.075-4.618-4.618c0-2.543,2.075-4.618,4.618-4.618c2.543,0,4.618,2.074,4.618,4.618
								C74.754,13.974,72.679,16.049,70.136,16.049z"/>
						</defs>
						<clipPath id="SVGID_142_">
							<use xlink:href="#SVGID_141_"  overflow="visible"/>
						</clipPath>
						<g clip-path="url(#SVGID_142_)">
							<defs>
								<rect id="SVGID_143_" x="40.311" y="3.53" width="35.229" height="16.356"/>
							</defs>
							<clipPath id="SVGID_144_">
								<use xlink:href="#SVGID_143_"  overflow="visible"/>
							</clipPath>
							<rect x="37.166" y="2.79" clip-path="url(#SVGID_144_)" fill="#E20714" width="41.483" height="17.701"/>
						</g>
					</g>
				</g>
			</g>
		</g>
	</g>
</g>
</svg>
